<?xml version="1.0" encoding="UTF-8" standalone="no"?>
<!-- Created with Inkscape (http://www.inkscape.org/) -->

<svg
   xmlns:dc="http://purl.org/dc/elements/1.1/"
   xmlns:cc="http://creativecommons.org/ns#"
   xmlns:rdf="http://www.w3.org/1999/02/22-rdf-syntax-ns#"
   xmlns:svg="http://www.w3.org/2000/svg"
   xmlns="http://www.w3.org/2000/svg"
   xmlns:sodipodi="http://sodipodi.sourceforge.net/DTD/sodipodi-0.dtd"
   xmlns:inkscape="http://www.inkscape.org/namespaces/inkscape"
   width="625"
   height="65"
   id="svg3717"
   version="1.1"
   inkscape:version="0.48.3.1 r9886"
   sodipodi:docname="2.svg"
   inkscape:export-filename="/home/andy/sac-d7/sites/all/themes/sac/img/rating-bars/2.png"
   inkscape:export-xdpi="89.870003"
   inkscape:export-ydpi="89.870003">
  <defs
     id="defs3719">
    <clipPath
       clipPathUnits="userSpaceOnUse"
       id="clipPath422">
      <path
         inkscape:connector-curvature="0"
         d="m 0,346.774 572.581,0 L 572.581,0 0,0 0,346.774 z"
         id="path424" />
    </clipPath>
  </defs>
  <sodipodi:namedview
     id="base"
     pagecolor="#ffffff"
     bordercolor="#666666"
     borderopacity="1.0"
     inkscape:pageopacity="0.0"
     inkscape:pageshadow="2"
     inkscape:zoom="1.4"
     inkscape:cx="305.7948"
     inkscape:cy="-76.715057"
     inkscape:document-units="px"
     inkscape:current-layer="layer1"
     showgrid="false"
     fit-margin-top="0"
     fit-margin-left="0"
     fit-margin-right="0"
     fit-margin-bottom="0"
     inkscape:window-width="1231"
     inkscape:window-height="776"
     inkscape:window-x="49"
     inkscape:window-y="24"
     inkscape:window-maximized="1" />
  <metadata
     id="metadata3722">
    <rdf:RDF>
      <cc:Work
         rdf:about="">
        <dc:format>image/svg+xml</dc:format>
        <dc:type
           rdf:resource="http://purl.org/dc/dcmitype/StillImage" />
        <dc:title />
      </cc:Work>
    </rdf:RDF>
  </metadata>
  <g
     inkscape:label="Layer 1"
     inkscape:groupmode="layer"
     id="layer1"
     transform="translate(1.09375,-980.82541)">
    <text
       style="font-size:15.37748718px"
       y="645.30591"
       x="215.83923"
       id="text438">
      <tspan
         style="font-size:7.68874359px;font-variant:normal;font-weight:bold;font-stretch:normal;writing-mode:lr-tb;fill:#231f20;fill-opacity:1;fill-rule:nonzero;stroke:none;font-family:RotisSansSerif ExtraBold;-inkscape-font-specification:RotisSansSerif-ExtraBold"
         x="215.83923"
         y="645.30591"
         id="tspan440" />
    </text>
    <path
       inkscape:connector-curvature="0"
       id="path208"
       style="fill:none;stroke:#231f20;stroke-width:0.64072865;stroke-linecap:butt;stroke-linejoin:miter;stroke-miterlimit:4;stroke-opacity:1;stroke-dasharray:none"
       d="m 0.14859106,1045.1878 624.35928894,0" />
    <text
       style="font-size:15.37748718px"
       y="1020.2957"
       x="11.543435"
       id="text382">
      <tspan
         style="font-size:16.65894508px;font-variant:normal;font-weight:bold;font-stretch:normal;writing-mode:lr-tb;fill:#ffffff;fill-opacity:1;fill-rule:nonzero;stroke:none;font-family:RotisSansSerif ExtraBold;-inkscape-font-specification:RotisSansSerif-ExtraBold"
         x="11.543435"
         y="1020.2957"
         id="tspan384">5</tspan>
    </text>
    <g
       id="g426"
       transform="matrix(1.374977,0,0,-0.32247994,183.14892,982.67807)">
      <path
         d="M 0,0 0,-194.011"
         style="fill:none;stroke:#231f20;stroke-width:0.5;stroke-linecap:butt;stroke-linejoin:miter;stroke-miterlimit:4;stroke-opacity:1;stroke-dasharray:none"
         id="path428"
         inkscape:connector-curvature="0" />
    </g>
    <g
       id="g430"
       transform="matrix(1.374977,0,0,-0.32247994,405.93273,982.78358)">
      <path
         d="M 0,0 0,-193.684"
         style="fill:none;stroke:#231f20;stroke-width:0.5;stroke-linecap:butt;stroke-linejoin:miter;stroke-miterlimit:4;stroke-opacity:1;stroke-dasharray:none"
         id="path432"
         inkscape:connector-curvature="0" />
    </g>
    <g
       id="g434"
       transform="matrix(1.374977,0,0,-0.32247994,508.32147,982.67807)">
      <path
         d="M 0,0 0,-194.027"
         style="fill:none;stroke:#231f20;stroke-width:0.5;stroke-linecap:butt;stroke-linejoin:miter;stroke-miterlimit:4;stroke-opacity:1;stroke-dasharray:none"
         id="path436"
         inkscape:connector-curvature="0" />
    </g>
    <path
       d="m 14.247727,1044.3212 609.032523,0"
       style="fill:none;stroke:#231f20;stroke-width:0.625;stroke-linecap:butt;stroke-linejoin:miter;stroke-miterlimit:4;stroke-opacity:1;stroke-dasharray:none"
       id="path216"
       inkscape:connector-curvature="0" />
    <text
       xml:space="preserve"
       style="font-size:40px;font-style:normal;font-weight:normal;line-height:125%;letter-spacing:0px;word-spacing:0px;fill:#000000;fill-opacity:1;stroke:none;font-family:Bitstream Vera Sans"
       x="228.29448"
       y="907.99158"
       id="text4061"
       sodipodi:linespacing="125%"><tspan
         sodipodi:role="line"
         id="tspan4063"
         x="228.29448"
         y="907.99158" /></text>
    <path
       inkscape:connector-curvature="0"
       id="path208-6"
       style="fill:none;stroke:#231f20;stroke-width:0.625;stroke-linecap:butt;stroke-linejoin:miter;stroke-miterlimit:4;stroke-opacity:1;stroke-dasharray:none"
       d="m 1.476374,981.95319 609.032496,0" />
    <path
       inkscape:connector-curvature="0"
       id="path212-5"
       style="fill:none;stroke:#231f20;stroke-width:0.625;stroke-linecap:butt;stroke-linejoin:miter;stroke-miterlimit:4;stroke-opacity:1;stroke-dasharray:none"
       d="m 1.476374,1044.685 609.032496,0" />
    <rect
       style="color:#000000;fill:#aca8a9;fill-opacity:0;fill-rule:nonzero;stroke:#aca8a9;stroke-width:2.27426386;stroke-linecap:butt;stroke-linejoin:miter;stroke-miterlimit:4;stroke-opacity:1;stroke-dasharray:none;stroke-dashoffset:0;marker:none;visibility:visible;display:inline;overflow:visible;enable-background:accumulate"
       id="rect4065"
       width="623.87067"
       height="63.476479"
       x="-0.079892315"
       y="981.56573" />
    <path
       inkscape:connector-curvature="0"
       d="m 623.42189,1044.5389 -4.63792,0 0,-61.89216 4.63792,0 0,61.89216 z"
       style="fill:#fff200;fill-opacity:1;fill-rule:nonzero;stroke:none"
       id="path70" />
    <path
       inkscape:connector-curvature="0"
       d="m 134.98621,1044.3401 -134.34429586,0 0,-61.38708 134.34429586,0 0,61.38708 z"
       style="fill:#fff200;fill-opacity:1;fill-rule:nonzero;stroke:none"
       id="path86" />
    <path
       inkscape:connector-curvature="0"
       id="path216-3"
       style="fill:none;stroke:#231f20;stroke-width:0.63195503;stroke-linecap:butt;stroke-linejoin:miter;stroke-miterlimit:4;stroke-opacity:1;stroke-dasharray:none"
       d="m 0.75993175,982.57308 622.66257825,0" />
    <path
       inkscape:connector-curvature="0"
       id="path220"
       style="fill:none;stroke:#000f24;stroke-width:0.63195503;stroke-linecap:butt;stroke-linejoin:miter;stroke-miterlimit:4;stroke-opacity:1;stroke-dasharray:none"
       d="m 0.75993175,1044.3202 622.66257825,0" />
    <g
       id="g3051"
       transform="translate(-16,-6.0086912)">
      <text
         sodipodi:linespacing="125%"
         id="text6488"
         y="1006.032"
         x="153.39664"
         style="font-size:12px;font-style:normal;font-weight:normal;line-height:125%;letter-spacing:0px;word-spacing:0px;fill:#000000;fill-opacity:1;stroke:none;font-family:Bitstream Vera Sans"
         xml:space="preserve"><tspan
           style="font-size:10px"
           id="tspan7113"
           y="1006.032"
           x="153.39664"
           sodipodi:role="line">2</tspan></text>
      <g
         id="g8213">
        <g
           id="g250"
           transform="matrix(1.25,0,0,-1.25,194.41563,1020.096)">
          <path
             d="m 0,0 -15.956,15.954 c -0.203,0.206 -0.536,0.206 -0.74,0 L -32.651,0 c -0.098,-0.096 -0.151,-0.229 -0.151,-0.37 0,-0.14 0.06,-0.273 0.158,-0.373 l 15.955,-15.952 c 0.098,-0.098 0.232,-0.153 0.371,-0.153 0.138,0 0.272,0.055 0.372,0.153 L 0.006,-0.743 C 0.211,-0.537 0.204,-0.204 0,0"
             style="fill:#110f0d;fill-opacity:1;fill-rule:nonzero;stroke:none"
             id="path252"
             inkscape:connector-curvature="0" />
        </g>
        <g
           id="g254"
           transform="matrix(1.25,0,0,-1.25,154.47913,1020.7063)">
          <path
             d="m 0,0 15.477,-15.479 c 0.039,-0.039 0.092,-0.059 0.146,-0.059 0.055,0 0.106,0.02 0.146,0.059 L 31.246,0 c 0.037,0.036 0.055,0.082 0.058,0.13 l -31.361,0 C -0.053,0.082 -0.034,0.036 0,0"
             style="fill:#fff200;fill-opacity:1;fill-rule:nonzero;stroke:none"
             id="path256"
             inkscape:connector-curvature="0" />
        </g>
        <g
           id="g258"
           transform="matrix(1.25,0,0,-1.25,172.13175,1023.3101)">
          <path
             d="m 0,0 0.298,-6.103 c 0,-0.871 2.379,-0.871 2.379,0 L 2.976,0 C 2.976,0.97 0,0.97 0,0"
             style="fill:#110f0d;fill-opacity:1;fill-rule:nonzero;stroke:none"
             id="path260"
             inkscape:connector-curvature="0" />
        </g>
        <g
           id="g262"
           transform="matrix(1.25,0,0,-1.25,175.612,1034.15)">
          <path
             d="m 0,0 c 0,-0.71 -0.575,-1.283 -1.284,-1.283 -0.709,0 -1.283,0.573 -1.283,1.283 0,0.71 0.574,1.286 1.283,1.286 C -0.575,1.286 0,0.71 0,0"
             style="fill:#110f0d;fill-opacity:1;fill-rule:nonzero;stroke:none"
             id="path264"
             inkscape:connector-curvature="0" />
        </g>
        <g
           id="g266"
           transform="matrix(1.25,0,0,-1.25,183.68577,1009.2)">
          <path
             d="m 0,0 c -0.341,-0.342 -0.511,-0.788 -0.511,-1.234 0,-0.447 0.17,-0.892 0.511,-1.233 0.257,-0.257 0.589,-0.419 0.946,-0.479 0.012,-0.413 0.177,-0.809 0.472,-1.105 0.111,-0.109 0.246,-0.199 0.389,-0.273 0.079,-0.128 0.166,-0.248 0.267,-0.349 0.211,-0.212 0.477,-0.358 0.762,-0.452 0.044,-0.566 0.275,-1.096 0.678,-1.5 0.924,-0.924 2.428,-0.924 3.353,0 0.448,0.45 0.695,1.044 0.695,1.678 0,0.633 -0.247,1.229 -0.695,1.676 -0.334,0.335 -0.764,0.552 -1.224,0.643 0.137,0.274 0.227,0.562 0.227,0.859 0,0.496 -0.192,0.988 -0.565,1.361 C 4.591,0.305 3.457,0.335 2.701,-0.305 2.633,-0.197 2.557,-0.093 2.465,0 1.785,0.678 0.68,0.678 0,0"
             style="fill:#110f0d;fill-opacity:1;fill-rule:nonzero;stroke:none"
             id="path268"
             inkscape:connector-curvature="0" />
        </g>
        <g
           id="g270"
           transform="matrix(1.25,0,0,-1.25,188.40976,1017.1467)">
          <path
             d="M 0,0 C -0.363,0.364 -0.571,0.851 -0.581,1.367 L -0.584,1.51 -0.725,1.545 C -0.996,1.613 -1.242,1.754 -1.44,1.949 -1.529,2.04 -1.608,2.145 -1.679,2.26 l -0.027,0.05 -0.052,0.023 c -0.126,0.062 -0.241,0.143 -0.338,0.24 -0.259,0.259 -0.391,0.617 -0.362,0.985 l 0.014,0.19 -0.19,0.011 c -0.333,0.022 -0.645,0.163 -0.88,0.397 -0.533,0.532 -0.533,1.4 0,1.936 0.534,0.532 1.401,0.532 1.934,0 0.118,-0.118 0.212,-0.258 0.281,-0.413 l 0.118,-0.267 0.217,0.242 0.027,0.031 c 0.606,0.605 1.59,0.605 2.197,0 C 1.794,5.148 1.867,4.313 1.432,3.693 L 1.241,3.424 1.569,3.398 C 2.043,3.359 2.487,3.156 2.821,2.82 3.601,2.043 3.601,0.779 2.821,0 2.044,-0.777 0.778,-0.777 0,0"
             style="fill:#ffffff;fill-opacity:1;fill-rule:nonzero;stroke:none"
             id="path272"
             inkscape:connector-curvature="0" />
        </g>
        <g
           id="g274"
           transform="matrix(1.25,0,0,-1.25,192.26963,1013.2893)">
          <path
             d="M 0,0 z"
             style="fill:#110f0d;fill-opacity:1;fill-rule:nonzero;stroke:none"
             id="path276"
             inkscape:connector-curvature="0" />
        </g>
        <g
           id="g278"
           transform="matrix(1.25,0,0,-1.25,189.38763,1016.1946)">
          <path
             d="m 0,0 -2.909,2.907 0.004,-10e-4 -6.137,6.137 c 0,0.001 0,0.002 -10e-4,0.002 l -2.091,2.092 -0.625,0.625 -0.396,0.396 c -0.039,0.039 -0.094,0.061 -0.149,0.061 -0.055,0 -0.108,-0.022 -0.148,-0.061 l -0.295,-0.298 -10e-4,0.002 -8.956,-8.956 5.103,2.896 3.729,-1.757 4.074,3.163 0.17,-0.124 7.857,-7.856 c 0.213,-0.215 0.558,-0.215 0.771,0 C 0.213,-0.56 0.213,-0.216 0,0"
             style="fill:#ffffff;fill-opacity:1;fill-rule:nonzero;stroke:none"
             id="path280"
             inkscape:connector-curvature="0" />
        </g>
        <g
           id="g282"
           transform="matrix(1.25,0,0,-1.25,189.20575,1013.359)">
          <path
             d="m 0,0 c -0.146,0.176 -0.432,0.295 -0.644,0.315 l -0.001,0.001 0,-0.001 c -0.001,0.001 -0.003,0.002 -0.006,0.002 -0.012,0 -0.023,-0.004 -0.027,-0.018 -0.002,-0.011 0.005,-0.022 0.015,-0.028 0.475,-0.196 0.712,-0.582 0.67,-1.081 -0.047,-0.515 -0.31,-0.807 -0.852,-0.946 -0.009,-0.005 -0.018,-0.014 -0.017,-0.025 0,-0.011 0.01,-0.021 0.023,-0.023 0.214,-0.018 0.52,0.04 0.697,0.189 0.219,0.186 0.387,0.464 0.415,0.776 0.002,0.035 0.003,0.073 0.003,0.11 C 0.276,-0.457 0.162,-0.192 0,0"
             style="fill:#110f0d;fill-opacity:1;fill-rule:nonzero;stroke:none"
             id="path284"
             inkscape:connector-curvature="0" />
        </g>
      </g>
    </g>
    <text
       style="font-size:18px"
       y="1107.3364"
       x="25.423954"
       id="text402"
       transform="scale(1.0855645,0.92117972)">
      <tspan
         style="font-size:18px;font-variant:normal;font-weight:bold;font-stretch:normal;writing-mode:lr-tb;fill:#231f20;fill-opacity:1;fill-rule:nonzero;stroke:none;font-family:PT Sans Narrow;-inkscape-font-specification:PT Sans Narrow"
         sodipodi:role="line"
         id="tspan404"
         x="25.423954"
         y="1107.3364">2 Moderate</tspan>
    </text>
    <text
       xml:space="preserve"
       style="font-size:12px;font-style:normal;font-weight:normal;line-height:125%;letter-spacing:0px;word-spacing:0px;fill:#000000;fill-opacity:1;stroke:none;font-family:Bitstream Vera Sans"
       x="54.285713"
       y="-54.388874"
       id="text3078"
       sodipodi:linespacing="125%"
       transform="translate(-1.09375,994.5)"><tspan
         sodipodi:role="line"
         x="54.285713"
         y="-54.388874"
         id="tspan3082" /></text>
    <text
       xml:space="preserve"
       style="font-size:11px;font-style:normal;font-weight:normal;line-height:125%;letter-spacing:0px;word-spacing:0px;fill:#000000;fill-opacity:1;stroke:none;font-family:Bitstream Vera Sans"
       x="510.44336"
       y="996.87158"
       id="text3223"
       sodipodi:linespacing="125%"><tspan
         sodipodi:role="line"
         x="510.44336"
         y="996.87158"
         id="tspan3225"><tspan
           x="510.44336"
           y="996.87158"
           style="font-variant:normal;font-stretch:normal;font-family:PT Sans;-inkscape-font-specification:PT Sans"
           id="tspan3227">Small avalanches in </tspan></tspan><tspan
         sodipodi:role="line"
         x="510.44336"
         y="1010.6216"
         id="tspan3229"><tspan
           x="510.44336"
           y="1010.6216"
           style="font-variant:normal;font-stretch:normal;font-family:PT Sans;-inkscape-font-specification:PT Sans"
           id="tspan3231">specific areas; or large </tspan></tspan><tspan
         sodipodi:role="line"
         x="510.44336"
         y="1024.3716"
         id="tspan3233"><tspan
           x="510.44336"
           y="1024.3716"
           style="font-variant:normal;font-stretch:normal;font-family:PT Sans;-inkscape-font-specification:PT Sans"
           id="tspan3235">avalanches in isolated </tspan></tspan><tspan
         sodipodi:role="line"
         x="510.44336"
         y="1038.1216"
         id="tspan3237"><tspan
           x="510.44336"
           y="1038.1216"
           style="font-variant:normal;font-stretch:normal;font-family:PT Sans;-inkscape-font-specification:PT Sans"
           id="tspan3239">areas.</tspan><tspan
           dx="0"
           x="537.68555"
           y="1038.1216"
           style="font-variant:normal;font-stretch:normal;font-family:PT Sans;-inkscape-font-specification:PT Sans"
           id="tspan3241" /></tspan></text>
    <text
       xml:space="preserve"
       style="font-size:12px;font-style:normal;font-weight:normal;line-height:125%;letter-spacing:0px;word-spacing:0px;fill:#000000;fill-opacity:1;stroke:none;font-family:Bitstream Vera Sans"
       x="408.53711"
       y="995.83203"
       id="text3197"
       sodipodi:linespacing="125%"><tspan
         sodipodi:role="line"
         x="408.53711"
         y="995.83203"
         id="tspan3199"><tspan
           x="408.53711"
           y="995.83203"
           style="font-size:11px;font-variant:normal;font-stretch:normal;font-family:PT Sans;-inkscape-font-specification:PT Sans"
           id="tspan3201">Natural avalanches</tspan><tspan
           dx="0"
           x="498.55664"
           y="995.83203"
           style="font-size:11px;font-variant:normal;font-stretch:normal;font-family:PT Sans;-inkscape-font-specification:PT Sans"
           id="tspan3203" /></tspan><tspan
         sodipodi:role="line"
         x="408.53711"
         y="1009.582"
         id="tspan3205"><tspan
           x="408.53711"
           y="1009.582"
           style="font-size:11px;font-variant:normal;font-stretch:normal;font-family:PT Sans;-inkscape-font-specification:PT Sans"
           id="tspan3207">unlikely; human-</tspan></tspan><tspan
         sodipodi:role="line"
         x="408.53711"
         y="1023.332"
         id="tspan3209"><tspan
           x="408.53711"
           y="1023.332"
           style="font-size:11px;font-variant:normal;font-stretch:normal;font-family:PT Sans;-inkscape-font-specification:PT Sans"
           id="tspan3211">triggered avalanches </tspan></tspan><tspan
         sodipodi:role="line"
         x="408.53711"
         y="1037.082"
         id="tspan3213"><tspan
           x="408.53711"
           y="1037.082"
           style="font-size:11px;font-variant:normal;font-stretch:normal;font-family:PT Sans;-inkscape-font-specification:PT Sans"
           id="tspan3215">possible.</tspan><tspan
           dx="0"
           x="449.70117"
           y="1037.082"
           style="font-size:11px;font-variant:normal;font-stretch:normal;font-family:PT Sans;-inkscape-font-specification:PT Sans"
           id="tspan3217" /></tspan><tspan
         sodipodi:role="line"
         x="408.53711"
         y="1050.832"
         id="tspan3219"><tspan
           x="408.53711"
           y="1050.832"
           style="font-size:11px;font-variant:normal;font-stretch:normal;font-family:PT Sans;-inkscape-font-specification:PT Sans"
           id="tspan3221" /></tspan></text>
    <text
       xml:space="preserve"
       style="font-size:16px;font-style:normal;font-weight:normal;line-height:125%;letter-spacing:0px;word-spacing:0px;fill:#000000;fill-opacity:1;stroke:none;font-family:Sans"
       x="277.79196"
       y="-35.0051"
       id="text3193"
       sodipodi:linespacing="125%"
       transform="translate(-1.09375,980.82541)"><tspan
         sodipodi:role="line"
         id="tspan3195"
         x="277.79196"
         y="-35.0051" /></text>
    <text
       xml:space="preserve"
       style="font-size:12px;font-style:normal;font-weight:normal;line-height:125%;letter-spacing:0px;word-spacing:0px;fill:#000000;fill-opacity:1;stroke:none;font-family:Bitstream Vera Sans"
       x="184.7917"
       y="995.93011"
       id="text3175"
       sodipodi:linespacing="125%"><tspan
         sodipodi:role="line"
         x="184.7917"
         y="995.93011"
         id="tspan3177"><tspan
           x="184.7917"
           y="995.93011"
           style="font-variant:normal;font-stretch:normal;font-family:PT Sans;-inkscape-font-specification:PT Sans"
           id="tspan3179">Heightened avalanche conditions on </tspan></tspan><tspan
         sodipodi:role="line"
         x="184.7917"
         y="1010.9301"
         id="tspan3181"><tspan
           x="184.7917"
           y="1010.9301"
           style="font-variant:normal;font-stretch:normal;font-family:PT Sans;-inkscape-font-specification:PT Sans"
           id="tspan3183">specific terrain features. Evaluate snow and </tspan></tspan><tspan
         sodipodi:role="line"
         x="184.7917"
         y="1025.9302"
         id="tspan3185"><tspan
           x="184.7917"
           y="1025.9302"
           style="font-variant:normal;font-stretch:normal;font-family:PT Sans;-inkscape-font-specification:PT Sans"
           id="tspan3187">terrain carefully; identify features of </tspan></tspan><tspan
         sodipodi:role="line"
         x="184.7917"
         y="1040.9298"
         id="tspan3189"><tspan
           x="184.7917"
           y="1040.9298"
           style="font-variant:normal;font-stretch:normal;font-family:PT Sans;-inkscape-font-specification:PT Sans"
           id="tspan3191">concern.</tspan></tspan></text>
  </g>
</svg>
