<?xml version="1.0" encoding="UTF-8" standalone="no"?>
<!-- Created with Inkscape (http://www.inkscape.org/) -->

<svg
   xmlns:dc="http://purl.org/dc/elements/1.1/"
   xmlns:cc="http://creativecommons.org/ns#"
   xmlns:rdf="http://www.w3.org/1999/02/22-rdf-syntax-ns#"
   xmlns:svg="http://www.w3.org/2000/svg"
   xmlns="http://www.w3.org/2000/svg"
   xmlns:xlink="http://www.w3.org/1999/xlink"
   xmlns:sodipodi="http://sodipodi.sourceforge.net/DTD/sodipodi-0.dtd"
   xmlns:inkscape="http://www.inkscape.org/namespaces/inkscape"
   id="svg7133"
   version="1.1"
   inkscape:version="0.91 r13725"
   width="184.2"
   height="184.2"
   viewBox="0 0 184.2 184.2"
   sodipodi:docname="10.svg"
   inkscape:export-filename="/home/andy/SAC-responsive_sac/img/api/8.png"
   inkscape:export-xdpi="90"
   inkscape:export-ydpi="90">
  <metadata
     id="metadata7139">
    <rdf:RDF>
      <cc:Work
         rdf:about="">
        <dc:format>image/svg+xml</dc:format>
        <dc:type
           rdf:resource="http://purl.org/dc/dcmitype/StillImage" />
        <dc:title></dc:title>
      </cc:Work>
    </rdf:RDF>
  </metadata>
  <defs
     id="defs7137" />
  <sodipodi:namedview
     pagecolor="#ffffff"
     bordercolor="#666666"
     borderopacity="1"
     objecttolerance="10"
     gridtolerance="10"
     guidetolerance="10"
     inkscape:pageopacity="0"
     inkscape:pageshadow="2"
     inkscape:window-width="768"
     inkscape:window-height="848"
     id="namedview7135"
     showgrid="false"
     fit-margin-top="0"
     fit-margin-left="0"
     fit-margin-right="0"
     fit-margin-bottom="0"
     inkscape:zoom="1.2812161"
     inkscape:cx="84.685167"
     inkscape:cy="92.100007"
     inkscape:window-x="832"
     inkscape:window-y="24"
     inkscape:window-maximized="0"
     inkscape:current-layer="svg7133" />
  <image
     width="184.2"
     height="184.2"
     preserveAspectRatio="none"
     xlink:href="data:image/png;base64,iVBORw0KGgoAAAANSUhEUgAAATMAAAEzCAYAAABdWOReAAAACXBIWXMAABcSAAAXEgFnn9JSAAAA GXRFWHRTb2Z0d2FyZQBBZG9iZSBJbWFnZVJlYWR5ccllPAAAIAdJREFUeNrsnT1wG8mZQIe4rdpE PvLKyUkJmXh1iUuUdIk3ARQ5kSw6W20iKDAZLvcnckIo3/VyMy83EJRYzg4sMTknBhJfcpLBKifS BgcmopOzKVvBlRNef+DXQGOIIQYgBtPT817V7Ax+tBz0dL/5+me6l6IoOo0AAIpNp0IaAEAIvOcc f2q2LkkCAAWibraHcZl1T09P26QNABSFpaWlmj2mmgkAQYDMAACZAQAgMwAAZAYAgMwAAJkBACAz AABkBgCAzAAAmQEAIDMAAGQGAIDM5sLS0tI2qUB6ATIresFcMbuv3SlGYCINk151kgGQmV/YKIPC mU7+kk7LpBcgM/+whfKhRmmQLr2qJr3WSQ4vbjBts52arYHMypsJNsxudUxBhfHpJfKqjolqAZCZ J1VMCuds6bVBNAvILP8oY82JMjq6X9VoDc6nl0hrI5Zey857AMjMgyhDCuQRVc0Lqau87HGHaBaQ mR9RhpXW09PT0xOz39XX9zVqg/Hy75j06pl9U1/fYFgLILP82HCijGZsT3R2Xv4iq1U3nYzQmkSz gMz8iTIO7RqiGp09pXAmVjGFtyqxKHYDYFgLILMcogwZXnBDX+7GPravVxnhPkgvqXI/TEgvollA Zh5EZW/N1nI/MFFHV6I1CufYqCwur0jbzvZj6QqAzBYQZaw4UUZTq5ZRQnRWpSNgRGb7Kq/ogmi2 RnKN1gLMthvYb2rk3aSAzM5HGUmZrKVRW+mjDa1qr16UXtrmeER6ja2eS9p8Yo6bgfwm+R078rvy FBoyGy1snYQow3YENKlqjvz+I9tRkgDDWs4j+cjmsYdFF5qe/0OqmZ6E/JOijDGFc7nkVadqyvRy CypPBAxvipJ3DrMWmvlbNbMtma2xAJHJ76klNNEgswXRIwkyLbiQo9AWFJHlLjJkNsxYadt23Opl t8TJluqRpdgwljYaC0NoPooMmZ2vDlWTxpFptXJHX+6XPOqw6bWaVAC1+m6roR0d3gIFF5qvIkNm Q3ad6OyJuWAt2ybmdKP/Xj9/G5W8d05H+7sFsG1nFdH0amgkZh8Na5DFii80n0UmvEd2OstQWhhl +IV0BtyPznrg4l99qxewR6r1C6AIS56aqGpUO+57jyb0eJL/zvKfm54iNHm/PoVoJBLe0OuyFo1O Lho5Aurp32lPEy37LrJBWuomJxeVeTOsaJR24qSL3eRirpU9jcakVyMhveTGsE46TZ2eXScN6ynT vzcm/dNsPa1lrEz4O3Xn33QnfX/BadbQ82ov6YFwhzvouTYye+ckXdJFBnbAZJeezJnTcUUjp25S ZKbf2dZtOfZxR/99LxrtqbfXpxaNTnFuaxwN8/d2J0Rm675FZNqkIW3ZHWQGULybRitWjRSB7Zry 25pCmBsacVVj1dB6kTprXJnRAQBQnIIr8vmjIzKR2E0dHNtK+/+RyEo6ceTfSRATDYfa3IjOHkmq FzF9kBlAMUQm1bwnTrXw5yqxS0VRUhtTqX2qb0m19UkRhYbMAPwXmbRlxXsSW/P8G9pedjMaTqZQ OKEhMwD/q5afxESWSZuW/n9rMaHVkBkAXFZk7lMUR9ECehLHCK1VlKnPkRmAv4jI7NCLjUUNiVCh 2VlO5O83kRkAXKZ6aYdNPF70cAkdpvWNvrxfhOomMgPwk4atXmY1H1nKc3gbOx9kBgCpozKp4q3m LZHYIthVbcNDZgCQmroTlTVzPpddJzqrIzMAmIaa7lt5n4hGZ/Y8vJ76HJkB+FXFFJHZHsymJ6dl Zbbq88I0yAzAz6gs8uiB77Zz7G27mRcyM7ZnXcXp0qtOKgSLHaDa8eWEtKr5FplNLpgStn7Nuoqp 06s/gaSdphqCw1dZeD8tkA+RmY0yiM7SIRJbjliI2LebjEydczrlVktZtfOyGuz89sYMv33uv88H mVmJ1YvyDJgn6cUq4QAOuS5oom0/tudmWaOOJpclMb3krngjFtU2SBlvbjLT3oy7gVQ3mzNEknN/ zjTv1ZnqYzIEMkufXsjME+bY89iLzp7J9K2WspIkIV2trJf3CeZWzdRHI+yDtHbNwBu+PzKRY3pJ ZrIT9NmerlV6NoOj52lkdiN2ft6RZ5uZbfvpr0UZDbt+6Qi4OL1sRHaUEK1BsbER3rIvbaKxjgpv ezUrOSWOXR1GaOk4Flu93KAj4MIqZkfDelu9rNIREBRt59iX4Tf2PN76vHJTJcfEsQ3/u7H9cuT5 M2A5yN+dRcGmU4toNjz0xn7oWdS94eQ5b8lLZg0nyujqRZRoYz/2OYxm6iO7kEXsAWCqmmFhb1g3 8p4UUdtkV5FZcv3bJk4z9rF9vVqkhRQyTi+pQt5PSK9BNEtHQFC4UXfeN/bt+I0UmZ2PMt7G52rS xKJhe3xmcuVl00ui2g7pFWRV050UMZcbuz4zfaMotaXKghNHooyH4wrmmOjsIR0BI5J6mrCgRdPJ 9AxrCauqaW/szUWXBS2rVmCHHkwS6V1kVh9TCJPaC0ofbcSekGgm3MWbER0BoUZn9nquRgtsr1Jx tpy8V4hymJfM9rXBP+kiPqVwnmuvaE+4iwsMawlLaCKUb5zIe1HRUdOpXj72eThGLjKb0PCfVHUq e0dA2vYKm14MawlPaHJDs+2iD7MUmtwIdTaL+07TRqMoabXIyOwk4XjSd2G+aQvFQ25Qh47QuvMe KK3trSKyqiOyepESaWEy01A17SovdefftUuciY+mTa+oAJPowdRlR25QUkPZdyJ2EdqloyaNxuT/ 80enJlA4kS06MhNazt2lfkF19BObqCXPx7ZKUb0gvdaj0UHIPYp/mEIzm0Roj50mhR1z/XsyhGLa tlKJ7FRikl929G0JNh4VUWSDdNKtZn5ElOUWnU0jcuL8TUnMNf1sTV/bz07sZ2XdNL26TpqI3NZj 6eWm57qnv2GjzNdxhjSTDp36BZ/bKuFpbGtpnqjFy47ml5p+Pu7fti8qbxr973qYVg3n/BcnM+dC nIxJzNOYyNbJ2IP06k1Ir9OLMr8nMq5zPVOlWdO5phsTvltLENM0W2tS2dc2u8ENFZmdv0s0ExK3 WfaILEEKSenV9jgi6/ouXI9FJmm3MkV52k4pthP93nbacjauhuCjzJb0QLiz6MZ2ree7o9a7CaPc YbRN0dLzsY1Mr2s7Gp3i2/KoCKPJc0gzSRP7dMyhBhcnM/6/1lRwcWbOL2OuqRedBNruJ21+nVyn zdaL1SYrT5Vmbc8L5blMr21AbW20fmK+EyG0bESmeaQXzXlGWDkfvZHaa/tQr6M3nQWsaA6Zikwy uw7LqUXDoTlPmOUjG5EtIPioRaNj3ry5KSEzyFRkTkFAaAUWWRGEhswgc5EhtDBE5rvQkBksRGQI bfEiM39nV1dan3v6+ig0ZAYLExlCGzyxsaiIzC7nuLagCG0jz8V1kBksVGRlF5r+7kdFq1qmEFpH f08PmUFpRIbQTmXQ6XooYyr1udFa3vOeITPIRWRUOQGZQTAiQ2iAzCAYkSE0QGYQjMgQGiAzCEZk CA2QGQQjMoQGyCy7wlwv8W/PdcoXhAbIbL6FebeMq4T7MncVQgNkNh+k0Mj8W6VaiNi3SfgQGqTl PZIgESux/irhZZgB19fZREVozsSATPA4XR6Wa9ojMitvFVMKjl19vRSrhPsqMiK0y6WZzExcluUH kdnFUZmlgcgQGiCzohXsNbO7ry/t1CarsYVEEBlCA2TmPW7BkOrl0Zj3ERlCA2RWGJnta1tDU18/ 1MKPyBAaIDPvC7gUBtvwv6v7ZkLUhsgQGiAz76OyI7s+pUZn+/p+4cechSIyhAbILLmQr0Vn86W7 UVkUey0dARsF/o1BiQyhATIbT8M5bsYKiwig0B0BoYoMoQEyO1/QN5xCPm60v43O7ue5Ag0iQ2iA zC5CRLacUMV0o7W3RYvOyiIyhAbI7AzbsH+YtMKMRmutIsmsbCJDaMis7FXMdaew7074utsRUENk CA2QmU+cJBxP+i4iQ2iAzLzK8D0ns08aduEWhB4iQ2iAzHzDtoU9TMroWh21bWsdH6dVQWQIDZnB diyjN+zwCxGE2baj4cSAUeThkwCIDKEhM7A9lW5G3zHb/5jMfmr2fzXb147IHiX1eCIyhAbIzJeM LlXJ/YSvdMx207epmhEZQoMzWANgNKP3orM5/6WKuaaZXjJ/lzaysITGmgLIrExS62lm9xJEhtCA ambhQWRUOQGZITJAaMgMEBlCA2QGiAyhATJDZIgMoQEyQ2SA0JAZIDKEhtCQGSAyhAbIDJEhMoQG yAyRAUJDZoDIAKEhM0BkCA2QGSJDZAgNCi8z31c6QmSA0JBZ2sL8+6KtEo7IEBpCQ2Zx7Hz6pcoM iAyhQXgyq5dNZogsKKG1x9yYoWwyM4Va1qlc1ZerZbizIbKgrmXT7O7ry0ON1KCkkVl9wmtEBj6L 7KErMl3lC8omM23wt3e1I91XQ+0IQGSIDMKNzNz2BQnP34ba7oDIEBmELbO6U7B7Zt8KsaqJyBAZ BCwzbei3K4Q3db+r++VQOgIQGSKD8CMzW5U8NBlCCrvt5u6EUtVEZIgMApeZyRjrTgHfjX1so7Qb +j1EBogMvI3MbNQlDf4t9wNdTbrQHQGIDJFBCWSmBX1DX7YSMoaN1jb0+4gMEBl4F5lJwbYN/42E 79iq5rIjPkQGiAy8kpmtOnZ0OMY59P39CcJDZIDIIB+ZaYP+aiz6iiZEZ6u+dwQgMkQG5YvM3Pav 3oTv9hL+HSIDRAb5ysyOJ1MmtYW5n3cRGSAy8Cky6xd43X+SVH3U923b2r6PmQqRITJAZo1oOI6s bTLSth1+IXt9jEkkManHE5EVSxhriGyq81on13guM+2ptFGXCOtrs/3VXLxT2ZvtiSOyR/qIEyIr fuTT9a2AeiwyOa8/MgW3/5GZHeV/Mxo+hxlH3r+p30NkYVThZPKAji9C81xk9rxYU2BK3svjj9rF IDRz16KzHkvJTG3fojFENpeCKdf8n1Vo1TyvcUFEFjlCi3y7sfvMqW5yUSO20U1F23XSqUm6TEyz pk2vD370o9Nvf/3r0ytXrvRfm8IpbabreZ+XXtMV39JLz6umN3f7Xp18lZh2DU2jNiuaE5FlFmEY kUXffvttdPv27WjP7I3Q3AhtPa/z8jgis+fVjljGzv82M0RWLpH94Ac/6H/2wQcf5Ca0gonsxG2K QWjIDJF5JDJLHkIrosicdkaEhswQmW8iy0NoRRYZQkNmiMxjkS1SaCGIDKEhM0TmscgWIbSQRIbQ 0vMeSYDIxqSHSEXSxO4jTR/hRArWZUQWF9rm1lb07t27wTi06GzWFCs2ex5S6LtasNtlEpkrNPP/ qUXDR/4Yh+amcXQ2RkO4c1EmQWTBp4MUEvndG9HwkbLJQppRZC6vX7+2Qpvmn4kQZIr1wfTrIYts zM2mHY0++ldKoZm0aJjdjtk6pa5mIrKzh8DNJgvL/F4L3EJFFq9yToFcM3mWtyfVrbKIjCpnMqWV GSIbRGNSMO7rW1I4ZJqmn5vtX0x6LLlbNJzOfG4imyC0m2PO4Y7ZPjXbkX5nWaVWCpEhNGSGyM6n QV2jMRuJfWO2NUkHs51bOUsL5v0sRJYktHGdAtIUYrZds62p2OJVz+BFhtCQGSIbbXN54kRj0l66 nVTY5tHYP4vQUvRy1ssqMoRWcpkhspE0sCKrpe0dzFpk0witTG1kCA2ZIbLxNJyqZf2i6XjyEFka oSEyhFZamSGyQTqsmd0n+lLWV2j5KLIJQmshMoRWSpkhshHcVa+2fRZZktCiYc8rIkNo5ZEZIkuU 2WHSivI+iWyc0FwZIzKEVgqZIbKxVHXfKorIkoRmznU/7zUFfF6mroxCC1JmiGwi7SKJLKnKmeci KUVYb7NsQgtOZogsMV3W0xRMX0Xmk9CKtHBwmYRWCazAIrJkVoouMh+EVsQV0MsitGBkhsgmchKC yPIUWhFFViahBSEzRJY6MwchsjyEVmSRlUVohZcZIpuJ3aKLbJFCC0FkZRBaoWWGyKbGTptzIwSR LUJoIYksdKEVVmaIbCYGhTAUkWUptBBFFrLQCikzRDZzweyn19WrV4MSmSu0xs6OLayXElrIIgtV aJUCFkpEdrmCGf39738PTmQW93fNKrQyiCxEoVUKVigR2SVEZh8FmnLhkELx4sWLwfEsVc4yiSw0 oVUKVCgR2SVEJm1ktgpmo7OQkd87bRtaGUUWktAqBSmUiOySIou3kcnybiFzxfzWaToFyiyyUIRW KUChRGRzFlmZKPIU3AgtIJkhMkSWtdAQWThCq3hcKBFZhiK7eu1a0GnxLtYmWKQpuBFaQDJDZNmI 7JXTTnbt6tUg0+GK/ubX338/MUKLPJyCG6EFJDNEll1EZoctyHdC5boRlqXdbl8oNIdtRFZ8oVU8 K5SILCORyVCMTqfTP759+3aw6SG/zYqqrb93ktB8mIIboQUkM0SWnciEZ8+eDY4ffPxx0OlSq9X6 +4ODg+jN8fFEoeU9BTdCC0hmiCxbkcmYsr3vvusfV6vVYNvLLJubm4PjRqOR+D2EFpbQKh4USkSW ocikevn5F1/0j6XQfv7558Gnj8h68xe/6B+/fPkyajx+jNBKILRKzoUSkWUckW1tbUXHWtUSkYUe lbnRme3okOomQgtfaJUcCyUiy1Bkv3n2LNo0IrNDFHZ2dqJ7d++WKr0kfVyhSXrQhhau0JbkvPT4 jjnBNiJbuKCkwMhK47Ift4JSTzf5/P5FIpOCKsMRpLH/2Cm0ZRRZvJot1U3LXZMWtWq13/MZT0OJ ZkV6MrOIuTZ/M/nya/0o6fp0dWsnrRJfgvwrZXlZ33pk0qG5wL/fkCxuts7CZYbIBukgv1kuxOos /14iiA90TJWMdh87SFRmymg0Bt8rM3t7e/1oNT79UZp0nIJ9s+0uKihAaDnKDJENLnzTSQNLR+/w 7uDNQTQ2Dbdu3Yru3btX2mgsCYlcD54/j56bKudxQnXzAo407/Zi12dtzLX8xuTrbYSWvdBykRki G0Rju84FF4E1ky56vI3M9kRKoTx+8+bc96XaJFFG2R8sT4NUJ9+YNBw3FZKbhlJFdaqc1fiSfXqd RGhybbeda1u6R6TyENrCZYbI+mkg7WL/oS+l0bRh0mD3gu+PiIzZL/KTXqwNbazQnHzejEr8zOei hebKrLKAH4fIhlVLK7IaIisG0/RyirTMJjetp/rWDee6l4I8ezkrGRdiGvvPaOqdyoqsi8jCFJoW 6LojtPvmu6VqP8tLaJnJDJEN0qHupEEDkZVKaIf2umt5QGhFkxkiG6Gh+yOqluUSWnTWIRBpVL5R tvRatNDmLjNENpIWktFXY1JDZCURmnao2eislGVgkUKrzLnwIrJRas5xC5GVMkJr6r5a1vRalNDm JjNENpY13R+O655HZKUQWjcWqSO0jIQ2F5khskRs5kVk5RWa2+GzUub0ylpol5YZIktFF5GVU2is LbA4oV1KZogsNSeIjConZCu0mWWGyKaihsgQGmQrtJlkhshS0yMiK73QtkmZxQhtapkhsplkVkVk 5RSaeetr5+MuKZSd0KaSGSKbmpHGX0RWPqHFCi6dARkKLbXMENlMrCMyhOaUIdrQMhRaKpkhsulx 28gEmVgRkZVPaO7q8XQKZCu0SopCicguKTLhzfTTNEMAyIIqTmGllzNDoVUQWXYik6qlrWaMm+Ya wsdOyy0ryTNsI1uhVRBZdiLrr9vIykilxq4GJdVNxqFlK7QKIstOZLSRgeW6uakxsDZboVUQGSKD xYHQshNaBZEhMsgetyMAoWUjNFdmiCwDkY1blxHKg+0AiucDhDZ/obkyayKy+YpMhmPYBmA6Aspb rRReJSw2jNAuJ7TIWVvBldkyIptv1fLFixfDjHv9OglXQq6rzNy8gNDmKrQb42SGyOYoMmFvby+y 37t29SqJV0Lu3bvX30uE/vzgAKFlI7RzMkNkcxSZZNxjHfX/4OOPSbwSVzMlr9ibm9sRgNDmK7R4 mxnMQWTS2PvVV1/1j6+aiOze3bskYImR53IFubk1Hj++UHwIbWqh7SZVM+GSIpM7b6PRGDT8N3Z2 SMCSI6P/7+oNrdPpILSMQGZzjsju/exn0evvv++/3jEic2dNgBJHZ599NqhuHhwc9IVGlXPOZVWi NT2+oyswl0lUkkFWYqFre1qRyRAMaQ85cBp4RWRULyEetW9tbQ1udtIEsbm5mZhP5Oa4ab4vUb7J i38zebOqVSt5vRYN12W1dMs2AaRJh4YUNwl6SyUzzQAyJ3stcrp0Ezgy26orJ7dHUjKmZLb/fvEi evny5eB9uZtKGwkigyShffWrX43c+CTP1Gq1fkR2PTYeUTqS7HdVaFJely/4E9IgLuW4Zb7aRGbh /WCJvnaj2Bxj80baReROyzAMmES73e5L7Tjbee7khtwIWWqlkplWJduxu9m+viche8/87p4Ttu/a qE2qAbK5kZeL3FHlbip3VdmQGMwitXanE71+9WpQ/Yxj86HUBGzHkuFTrVa2NZ/XtMlE9hturULz ez3EKmhpZKbPbj1x3nqqd6pewvebEQ+Ng6dc1IY2Ji+L1JqO1A5FdKEJzZVZsL2ZejGfOO0IP5dB wYgMiso0vZwamKzrDTzS2kZbm1yCJEiZ6QVrOSKTO1Lrgu8jMghRaCf6VI8rtAYyKxbS7mXbyDaS QnFEBqELTaUmQtvXl59orQWZFSAqW4uGvZbfXNQOiMigLEIz1KPhc4xBRmchRmbbznEDkQFCG6ym bp9jrOpNH5l5jp2s7WlSzw0ig5JGaLtjygky87SKKQ3/tiu6jcgAoZ2Lzg71ZQ2Z+Y17AbuIDBDa OexNPrghGsGOM4v3YCIyQGh9bNPLGjIrZvUTkQFCG2UVmSEygBCE9haZFUdiK4gMEFqi0LrIzG/c oRhtRAYIbVRoUYC9mEHKLNbofwORAUIbFZp5q6of9ZBZkS4kIgMYEZoDMvMZbSPrI5PZITKAUaE5 ZeXT0BZJCUZmbmO/lRkiAxhyxSkPIa76FITM4iIT3iUs4wVQVo7fvBmKLcBl7Aovs/jwiwcffdR/ P2k+dYCy4q7TGeK6nIWW2bhxZCy6CzAeWUPAEuJCw4WVWdKAWNrJANIRmtAKKTNG9gMgtMLLbJLI XjmhNAAMuZJwww9FaIWSWZqIzPbYXGVBXoARrhtpWd7EVlIPQWiFkVnaquWLFy8GFwcAhly9du1c OQlJaIWQWVqRyd3GDsmgVxNglGumtmJrLM+fPw+uyum9zKZp7N/b2xsc37t7l9wLEMOWi5cvX44M 1QhBaF7LbBqRSdh8cHDQP75rLhi9mwDnefDgweCB80ajkfi9IgrNW5lNIzIZ2fz5F1/0jyXxP//s M3ItwBikDG1ubvaPpUmm8fhxMELzUmbTiExC5a2trejdu3dnd5udHaIygAv42ERnt27d6h9LbSYU oXkns2lE1m63o00jMtvov2NEVqvVyK0AE/jqyy/75csKTcpRfLhG0YS2ZLZTPb5jTrSdkaDWorPp etecTehFw0ni5G/XJ4lMqpTtTqffGyONmBYRGY3+AOmRsrTlBAOCtDdL5DZuaJPUgja1FmTK9N+M L6SsrjjleT0arsdpXdLOyivqloYUf7N1MpWZ+UMip+1Ip7CeBpFZfMSyTOsTnw1DupqlaslQDIDZ kFEAe999N/KeRGHjhHZsorfjhAjuAmQlqJbZGsYxvULJTEPQ3Wg437jlKBo/XW912r8hEpOeGbmL AMDlkCqmSM2OCJhBVt2U5fqx8UyjEDIz//MNs2uabdkRmIitNc7K8TYy6Wmx41/kOUt3DqZ/N9GX RGuyZ4Q/QDbIMCfZRHBvnAkd5XEoafaRMigDcKXjwKlyVmMLCrmBzXY0Onnqodlq5vsn3spMq5VP 0lqY2S8AisuYNrSxQtOyvqZBTnWeQnNlNrfeTKdqacPOm4gMIFym6eWUWpnZaubwqb4l7eiteZ7P PIdmtLRq+VaN20VkAAgtJrW6I7SqRlb+yExPaFVfNhAZAEKbILRDfbltvrviU2RW133HnOguIgNA aBMG1lpnSG1u2wuZae+ljcoQGQBCS9OGJrW3/ZjYco/M7Mm+NSfYQmQACC1lhGZ9saq9nbnLrKb7 NiIDgCmE5jrDC5lZuogMANIKLTaIvuaDzKpEZAAwY4R2NK+/l8kUQIgMAFIKreeTzI4QGQDMKLTq vP7OPGTWQ2QAcMkI7dIPnc+zmrmDyABgGqE5H3d9kNnISSAyAEgrtHn+v+chszVEBgCzCM2baqa2 kd23rxEZAKQVmjtL9DwWSZlZZm5jvyVphWQAgDjuLNLzWPVpJpnFey0BAKbllQY/sp7HPJaxm1pm 44ZfWN5Mv2oLAJQcWSJyHutyTiWzSePIjp3FDwAA0jKPhYZTy4wBsQDgs9BSyQyRAYDvQpsos2lE xlqWADAt8bb2WYVWuazIZLFQC9EaAKTl2rVr/f3rV6/mEqFVLhuRtdvtwfHt27e5QgCQukrZl9n3 348dCTGt0CqXrVq2O2fPilarVa4OAKSmVqsNjg+eP08UXlqhVS4jst88exYdq1FlrAgAQOpq5tWr 0a1btwYucZ8ImEVolVlFJo8u7e3t9Y/lhFzLAgCkYWtzs79/9+5d1Hj8+MIq6SSh/ZPZGnp802w/ TSMyqd/+8pe/jI7//Of+66++/DL64Q9/yJUBgOmis2vX+hHZn/70p+jo6KjvlqTASBzz4YcfRv/5 u99F//jHP943MvvYvP1/Zvs3sx25MvvXNCKT3sutra2ByHZ2dqIPf/ITrgoAzMSPf/zj6L/+8Ifo f//yl36NT57ZFKe8//77E4WmIhOOlsx/Tt0vP/joo0SRiUGf/fa3w9DPiI/qJQBclrhb5OHzi9rh RXidjjtRbdQ5JzMAgALSeU/+QzoAQMHp/r8AAwBplNkx9AAb6AAAAABJRU5ErkJggg== "
     id="image7141"
     x="0"
     y="0" />
</svg>
