<?xml version="1.0" encoding="UTF-8" standalone="no"?>
<!-- Created with Inkscape (http://www.inkscape.org/) -->

<svg
   xmlns:dc="http://purl.org/dc/elements/1.1/"
   xmlns:cc="http://creativecommons.org/ns#"
   xmlns:rdf="http://www.w3.org/1999/02/22-rdf-syntax-ns#"
   xmlns:svg="http://www.w3.org/2000/svg"
   xmlns="http://www.w3.org/2000/svg"
   xmlns:xlink="http://www.w3.org/1999/xlink"
   xmlns:sodipodi="http://sodipodi.sourceforge.net/DTD/sodipodi-0.dtd"
   xmlns:inkscape="http://www.inkscape.org/namespaces/inkscape"
   id="svg6033"
   version="1.1"
   inkscape:version="0.91 r13725"
   width="184.2"
   height="184.2"
   viewBox="0 0 184.2 184.2"
   sodipodi:docname="4.svg">
  <metadata
     id="metadata6039">
    <rdf:RDF>
      <cc:Work
         rdf:about="">
        <dc:format>image/svg+xml</dc:format>
        <dc:type
           rdf:resource="http://purl.org/dc/dcmitype/StillImage" />
        <dc:title></dc:title>
      </cc:Work>
    </rdf:RDF>
  </metadata>
  <defs
     id="defs6037" />
  <sodipodi:namedview
     pagecolor="#ffffff"
     bordercolor="#666666"
     borderopacity="1"
     objecttolerance="10"
     gridtolerance="10"
     guidetolerance="10"
     inkscape:pageopacity="0"
     inkscape:pageshadow="2"
     inkscape:window-width="768"
     inkscape:window-height="848"
     id="namedview6035"
     showgrid="false"
     fit-margin-top="0"
     fit-margin-left="0"
     fit-margin-right="0"
     fit-margin-bottom="0"
     inkscape:zoom="1.2812161"
     inkscape:cx="92.099998"
     inkscape:cy="92.100003"
     inkscape:window-x="832"
     inkscape:window-y="24"
     inkscape:window-maximized="0"
     inkscape:current-layer="svg6033" />
  <image
     width="184.2"
     height="184.2"
     preserveAspectRatio="none"
     xlink:href="data:image/png;base64,iVBORw0KGgoAAAANSUhEUgAAATMAAAEzCAYAAABdWOReAAAACXBIWXMAABcSAAAXEgFnn9JSAAAA GXRFWHRTb2Z0d2FyZQBBZG9iZSBJbWFnZVJlYWR5ccllPAAAHtZJREFUeNrsnT9y40iWh1OMNmdC mhOIY0y7Yp9ArBOI681aopwuszQnKNYJiu1Nr1MoY9amLjBD2rMRTZorZ6kTNBUhX4tXellKgQAJ kPiTSHy/CBT/CEUkHvJ9eC8zkXlijHk2CCHUbi162AAhFIJ+cN7/Ld6WmAQh1CJN4+0iCbPl8/Pz HNsghNqik5OTjX1PmokQCkLADCEEzBBCCJghhBAwQwghYIYQAmYIIQTMEEIImCGEEDBDCAEzhBAC ZgghBMwQQgiYlaKTk5NbrIC9EDBru2OexS+f49ch1sitSWyvMWZAwMwv2SgD58wHf7HTKfZCwMw/ Wae81igN5bPXZWyvAebw4gYzj7fneJsAs+5WglH8cp7iqCjdXgKvy5SoFiFg5kmKiXMeZq8R0SwC Zs1HGX0nyljo67lGa2jbXgKtUcJep853CAEzD6IMccgHUs2dGiu87PsF0SwCZn5EGRZaX5+fn2Xl l6l+vtKoDaXDfxHbax2/Rvr5gmEtCJg1p5ETZUSJV6KzbfgLrM5dO8VAi4hmETDzJ8pY2TVENTr7 inPutNejQswkbgAMa0HArIEoQ4YXXOjHaeLP9vM5I9y/20tS7qsMexHNImDmQ5QRbzP3D3HUsZRo Ded8o3EGvIy2nd0l7IoQMKshypBU6No6pqaWJiM6u6Qj4A3M7hReZkc0O8Rcb7OAeJsGdk6TppsU gNl2lJFVyWYatXU+2tBU+3yXvbTN8QF7pabnYpsP8fsokHOS8/go59Uk0IDZW2dbZEQZtiMgItV8 c/4PtqMkQwxr2ZbUI1vHrtsONC3/NWmmJyH/vigjxTlPO546Xea0l+uoPBHwelOUurOqGmjxsYbx dhJvkxpAJuczzGiiAWY1aY0JKnVc1CDQaorIGgcZMHutWHnbdtz0ctlhs+V6ZCkxjGUOxsIAmo8g A2bb6dBl1jgyTSs/6sevHY86rL3OsxxQ03ebhi50eAtqOdB8Bdl3m+omhTJd3GKdabppbTGz9ohl ndL+TS5cv6u2cmy2dGwiUdfIsddE7dT5ulWg/rn2jDwtZ+SUUcp75kGZ5rYOnugb0bs9PVNBSyMJ gdj5jt0e1TE7H2VoF7zUl4s9u94kHnVC+ewp0f+4YP0daaTXz6jHK71py3HmReqxrxGZzKZrXjqk FkRm23fIaSKq+H63JCJLtdckw15yYxhgp6MitHFO+69T7J9nW2u759me44x9i8iIzIoRf+i0bWCX fJGBHTC5pCfz6AhtmRWZ6T63up2mdM7MFVRr53t7fYbm7RTnNuOYxMeb7onMBr61kbmRGTBDqP3N IQKwaey/swLAHGnEdZlIQ8dtakZxYUZvJkLtcVyBz28OyARiP+ng2Fne35HIStox5f9JEGNeh9pc mJdHksZttA8wQ6gdIJM074uTFv6HQuyoKEqyMYXa3/QrSVu/tBFowAwh/0EmbVnJnsRZmcfQ9rKf zOtkCq0DGjBDyP/U8kMCZJW0aenvDhNAGwIzhNCxIHOfongwNfQkpgBt1papz4EZQv5KQGaHXozq GhKhQLOznMjxI2CGEDomvbTDJj7VPVxCh2n9oh+v2pBuAjOE/NTEppdVzUeWswyPifIAM4RQ7qhM UrzzpiGSWAT7UtvwgBlCKLfGTlQWNVyWqROdjYEZQqiIhvo6a7ogGp3Zcng99TkwQ8ivFFNAZnsw I0+KZWF27vPCNMAMIT+jMuPRA99z57237WZewCymPesqFrPXGCsEKztAdeFLgTTVfARm+x1TwtbP rKuY217fJpDUHi8UnnyFhffTAvkQmdkog+gsnwRip4aFiH27ycjUOc8Ft2HO1M7LNNg598kB5176 +fkAMwuxcVueAfPEXqwSjpCjHxq+m43Na8/NqUYdEZcl015yV7xIRLUTLOPNTabozXgZSLoZHRBJ lv6c6Q8NG2acUiGAWX57ATNPVGLP49q8PJPpW5ZylgWh+NzX5u16A42osTRTH42wD9LaRVAvfH9k okF7SWWyE/TZnq5zejaD09rTyOwiUT7v1GSbmW37+bYWpXnt+qUjYLe9bET2kBGtoXbLRninvrSJ JjoqvO3V7DVkHLs6jGim41hsejmiI2BnirnQsN6ml5d0BASlufPel+E3thyPPq/c1GvQOLbhf5p4 ZdjBNvzdWRSsnWZEs+FJb+wrz6LukVPnvFVTMJs4UcZSL6JEG3c4586o7MEuZJF4ABj4hyV7w7po elJEbZM9B2bZ+bc1TpT4s/183qaFFCq2l6SQVxn2+h7N0hEQlNyoe9JwWW6TN1Jgth1lPCbnalJj 0bCdXplceFl7SVS7wF5BpprupIiN3Nj1mekLT6DqF8w0yrhOc8yU6OyajoA3kPqasaBF5FR6hrWE lWraG3tUty+or1qArTyYJNK7yGyc4oRZ7QWdjzYST0hEGXfxyNAREGp0Zq/nuamxvUrBOXPqXiv8 sCmY3WmDf9ZF/Ipzvjn/la6WY/bcABjWEhbQBCi/OJF3XdFR5KSXn3wejtEIzPY0/GelTl3vCLjY k5In7WWfb0XhAE1uaLZd9LpKoMmNUGezuHKaNiZtsVWdkdkm4/2+fVG5tkXtk9ygVg7QlmUPlNb2 VgHZpQOycZuMVBvMNFTNu8rL2Pl/8w5X4oei9jItmEQPFfYduUFJhnLnROwCtKOjJo3G5Hd+czKB 1oGs7shMNHPuLuMd6egHa9SO12ObUlzusJfcUW2lXmS1RaL2Ay3eJEL75DQpfIyv/1qGUBRtK5XI TiEm9eWjfi3Bxk0bQfbdTroN45MwVW7mZRqRjXNMMWZf/9bXz/ZvG/u3rm5qr6VjE4HbIGEv154D T89h1OXreIDNpI10vOPvNiV8TmwzrRPDpO9ofRnq35cp/3e+y980+p96aKu5U/76YOZciE2KMZ8T IBtQsb/ba73HXs+7Kr8nMB5zPXPZLHKu6WjPvsMMqBXZZvt8X9vsvt9Qgdn2XSLKMG7U9YgsAwpZ 9pp7HJEtfQeuxyAT250V8KfbnGCzz/Te5vWztAzBR5id6BvRu7ob2zXPd0etLzNGuaO3bYpWax/b yPS6zs3bKb6tbtowmrwBm4lN7NMxKw0uNgf+Vl8Bl9TB9SXlmnrRSaBDSaQHdtHotNl6seZU5UI2 m3vulFuVXtuA5tpo/SXexwC0akCmdWRtSp4RVsqjN1J7ba/1OnrTWcCK5qhSkEll12E5Q/M6NOcL s3xUA7Iago+heTvmzZubEjBDlYLMcQSA1mKQtQFowAxVDjKAFgbIfAcaMEO1gAyg1Q+y+DhTXWm9 dPv6CDRghmoDGUD7/sRGXRGZXc6xX1OENmpycR1ghmoFWdeBpud907bUMgfQFno+a2CGOgMygPYs g04HoYyp1OdGh03PewbMUCMgI+VEwAwFAzKAhoAZCgZkAA0BMxQMyAAaAmYoGJABNATMUDAgA2gI mFXnzOMOn3ujU74ANATMynXmaRdXCfdl7iqAhoBZORKnkfm3OrUQsW+T8AE0lFc/YIJMWYh9WyW8 CzPg+jqbqADNmRiQCR6L1WG5pmsis+6mmOI4dvX1TqwS7ivIiNCOs5nMTNyV5QeB2e6ozGoCyAAa AmZtc+x+/HKlH+3UJueJhUQAGUBDwMx7uY4h6eVDyveADKAhYNYamN1pW0Okn6/V+QEZQEPAzHsH F2ewDf9TfY0yojZABtAQMPM+Knuw61NqdHan37d+zFkoIANoCJhlO3nfvMyX7kZlJvFZOgJGLT7H oEAG0BAwS9dEXx8TqaVdRbzVHQGhggygIWC27eg24ppljPa30dlVkyvQADKAhoDZLgnITjNSTKvI cZLWOEhXQAbQEDB7kW3YX2WtMKPR2qxNMOsayAAaMOt6ijlwnH26Z3e3I2AIyAAaAmY+aZPxft++ gAygIWDmVYVfO5V937AL1xHWgAygIWDmm2xb2HVWRdd01LatLXycVgWQATRghm4TFX1ih18IIOLt 1rxODGiMh08C+AwyH6YeB2jArCt37k2ion+Mt/+LK/tz/Pp7vH12QHaT1eMJyFLLFsUvv/kADoAG zLqUikgEcZexyyLefvJtquYWgOzaJ3AAtHDFGgBvK/ravMz5LylmXyu9VP4lbWRHgcw44Gh87n7W FABmXYPaWiu7l2oRyL6al/F5XoEDoJFmIkBWCGRSLl9TO1JOYIYAWW6Q+Q4OgAbMECDLDTKAhoAZ CgZkAA0BMxQMyAAaAmaALBiQATRUlRiaAcjSjivO3NfN1VxfxeGnh4LMBUfa8Aj9/bMdZVhXOe6P YRst9Re5dvr+nV2RCHUPZOq88szpVcH/enS59NlNC468kjUZBC5RVWBLKdcNQPPOT+T6yEJEC9LM joNMnnbQCvGvDJA9VAmyjNQurQzJv8n6pvIMrURRE1JOBMy6DbKxpnR2iT1x2l80Sj/RrW/fm5fR /KaKcmUA7cYpw5mW4c/yvXl9hlaipo/xuSyrWHEeoLVLz7oN4wtn2JrbtJ1o6VyTqMJjjZ3jyCbR zdmO/aOayiWp3cY51njHvn0Fv913uesc6ioXW60+Y6//HJh1E2RD5zjioIM9+9cCskPBoZ0RAK3j MCPN7F5qKceaOWnlcNf8bMcMv6grtYv3l46LT/rxwrwu6EzKSZpZO12HRGT1RD6JKGvoU0RWQoQ2 q6M+E6GRZu5yZnnTB2SVg6yf91hNg+zANrQzZ9+ZT6Bl60aaaefT71S43tCAWHf1qYlPqWUZqZ1O fx7px6sqejdJORmasUvjrsGswUeULMwyV5fyCWQHgsNdyHlYQ7nmKTdm1DWYxRVSnOtcP5534c7W 8LOWdjzZvC0gKwo0hbQd6Duo+FqKvexA41XV8ER+R2bjPZ8BWTWatwlkB0Ro66ojs4S9voFM01zU NZjpoiH2rmbvpJd2vUpAVvrxhzkd0+uFg3MCbV1DRAbIgFlq+4JbOYNrdwh1Gh+PgbauyV6ADJi9 SSm/ajvHLMRU0yOQbUIAWU6gDSq6loAMmG1VCql0dlqVSF9tL9RpKB0BPkVkyVH+bQZZDqCdVXAt ARkw25liruwcaloxF6Gkmj6nlnoDaTXIdgHNiczmgAyYVenkA8fBpylOJrrQ/QBZubIdLechgGwH 0E5LvJaADJjtjcqk4s0SlTIyLe8I8Dwic50wCJDtAFryfAEZMCvd0W3lmGVUDButjap8HKVrIFPH vHDS+3FolVmB5p7X50PbXwEZMNsnt2JNMvaJnFRhBMhKT5VE/YDrdBI4hZ+ZBGTArEiKmflsoH5/ twd4gOxwx7Q3ilA1dN4XfggckAGzPJVEGvTPE9GX2ROdnfveEdCmAbHOzcS0LYU/QAtTcFYLQAbM 8sp1nvWefdcZ/w+QHQiylHINQq/cRWbbAGTArEjFmjsf97WFuX9fArLSQdYZ5QEaIANmh8guVfYh K33U7206dOdjpQJk4QANkAGzQzVxKtQ8rki3tu1GXrWCCSROnf0BWTUgW9dYrn4D5jjLAbS5jyBr 84DxzsBMeypt1CXA+hxvv8cXT+bw/t28PIpiQXaza9UgQHYQyAaJa1FXuZY1OqiF0UWOCO3SQ5CJ vX5jCm7/IzM7yv8n8/ocZlLy/U+6HyArNyIbOs5bZ7lONRKvA2hz5/ijHEATRR6B7DqZCqMCfDEN rc6kkcJY00mJ2AasonTU0nFRzpWZpjWXK/eCwyUde5PDHl6trpRhL1Z9YkVzQLZn1e9+XeX68S9/ ef71739//sMf/lAb0BLnOvAdaInraCNHlrEDZoAsbZFl08AiwwKyf/3zn8//8+9/P//3P/5RG9A0 CrUwWPq8/mUKyM5YlxOYAbL9zrqpMirLApndagba5EAb1QaOLJCx0HB7FwH2TqEMv9AGd3eoy7iq Xky3XDHIzK+//mr++Mc/vtnnxx9/NP8Vfx8DzVTdKRCfp8DMPuN7reXL2rf2BX3zjG9joWHPezMB WW0gE2f+LTHUZdYUyJoAmnYurRygLbNWqaoTHEUG6gK0AnbVEE30LvHIESCrAWQ6fGDgDJuwjr1M DDeQ7692lUsddaSbfahfnOC2qqEuRUDm6v7+3vz8/r15enqyZRxWMa5Qr2nk2M4O/5Hv5slINSWa vSnTdoc+cVB1uVrss2ITGS+4AGYNgEyPdavbsdPxPDjgSmqhIFtWdB4HgaxuoGlZb7UdLcveK5My 0LZMcBz76BRAA2a+gUwq5CwBoEeNxJL2l3J9OOAw0lY0rfJ6HguyhoB2pqnneAe4TBVAK+sZUIAG zHwBmfzul0TkNMmye8Z8ZDYNTbb9SLq0ruMalgWyJoDmnEPfvAzhGJjt6alk2zgp/lHgKPthdoAG zHwCmTjseFeDvK+zX5QNsiaBVgc4qpqVA6Btw6yzvZkNpJYuyIaA7K1q7uXMrWN6E7WdrpJZOejl 3FYnYdZAr2WUANkSkIUNNP37Z/34YCqYlQOgdRxmdYNMK5c91gSQhQ+0lLbRMx/KBcwA2bGa6Kus SDUFZGEDLQEyu4K8nMO4yXIBM0B27DFzrUgFyMIAWgJk0kY2cIA2aqpcwAyQlaGh834GyIIGWpQA mW0jszexS59SYWAGyIqqbyt3WuMvIAsKaFm9lvNEpA7QgFnrQGbM6wBXQNYNoH1rTkjcuNbO+7OG ytUJoAULM89mv5gDss4A7bMLjroWjgFogcKMdS3DAlkLgeYFOLoGtOBg5inIhoCsm0Cz68ICNGDW dpCtici6DTTzsrgKERowa31EZmF2Ccg6C7Rr589Lj8oVHNCCgJnHbWTJXkxA1k2g2e83npUrKKC1 HmY+N/ab16EZgAygGToFgFkrQZZoIxNFgKyTQJs7X9HLCcxaDzJRH5B1D2hme6AsQANmrQTZV6ey 9H0pV2gg8xxo9vh3hnFowKytINNyLX0qV6gg8xhodlrrmWFgLTBrMci8KlfoIPM8QlvzpAAwA2SA LBSg8ehT12EGyABZAEDrA7SOwywAkA2aLFdXQeYR0FI7gABax2DWdpDpQrO2AXhZd7m6DjJPgLbM uqkBtI7ALJDUcpRSqQFZt4A219ertBk0AFrgMAuojexWX1dVT9IHyLwF2izj5gbQQodZKCDT1azt ykzTusoFyPwCmgJhYetB1vxmAC0wmAUEMnGOiROVRYCs0xGarQtyrKht4GgL0LyBWWAgm5vXhv9x HeUCZP4CLa4vUh9+0Y9Xet0AWogwCwhkwwTIbrQSADKAJs0OK/14HR9nRspZsk9IGfX9O72DdAJk ety0iruxAMoLMh2CMTFvZ8q4qSq9BGTl6v7+3vz8/r15enoy6qjDKm5CKXVdjiWQm2WsqzpIuTlG zo0zs+5W7DuZ5WqAH1IOmcl50SjM6gaZXgT5felVOi/wX6XSTc3buankt/p6p7pI7DuOz2MGyABa xjWUuvQhUWekbi11s2Dra129KngI6XCQ+hdVNbutL0DzAmZ1gkwjp+kBlaKoZMqf2worECALB2hD jeYvKzwlOYdJfA7Tis6hcaC5MGukzaxmkI30bnflXGCBzo0C/MRu8ec/O+0aRt8vEt+5ejAv81T9 Ld7+JOcAyNqrujsF4k2A9pN56RxY7Im0FubtmgJftc7Zuvsnqc9aF219lXOQRYnnVSx551sbWu2R Wc0gk9/94nz1SSK0LODw0DiqO0KrKhLSyG/q+NlKz2PTZLmCicwaiMi+ONGYwHoCyJBPEVpVkZBG fgON4Iz6XNARWq9Gp6y7jSxyQDbcFXUCMhQi0HT/sWYkFmhTH8rVWpg1MPxi6oS8O1MEQIY6ALSJ E6FdZwzraD3QejU4ZRPDL2xj/ydAhgDaN906+048Klc7YNbQgNhbJ72cAjIE0L6vpm4hdqlNMUEB rVehUzb1iJINoWc09iOA9kaR837kWeToJ8wafkTJjuyfAzIE0Lais0Xiph8M0HoVAaWJiEzkVqwl IEMAbUvWL848K5dfMPNp9otkwz8gQwDtmzYpN/4ggNYr0SlZDg6QAbT2RGinnparWZgBMkAG0FoH tEePQdsMzHwFmXQ9AzIE0DLBsfS0XM3AzEOQuUMxZoAMAbS34DAVD8loEmi9I5zSu4gs0ejvdcoL yABaQ+CwfrEODWi9A53S2zayhAAZAmjb4EhmMUEArXeAU/re2G+1AGQIoG2Bw+pDaIuk9Ao6ZVt6 Lb0RIANovgAtRUGt+tQr4JRtAZk1yJlP5QJkAM0DoLk+Edwydr2cTtmacWTmdaaMC0CGAFomzEpJ 7XwCWi+HU7ZtQOyciAwBtFQNyk7tfAJaLzCQeVUuQIY8TjmDA1oPkAEyBNBCAFovQJANmi4XIEOe Am0TMtB6AUZkfX19AGQIoL3R0qmz/dCA1gswtRwmLxwgQwBtyyeGOcHRmlTYhVnrQaZ3G1v+GSBD AO0NFCTNXOnHcU5wtKZt70T20/eP5nXCtlY29if2/VMVS9EDMlSm7u/vzc/v35unpyfrgzvXeS2h 3srqZZ/147usxbEVYHNlQuXlKlB+t1wutxZuZNZ2kA0T+wIyRIS2rciJbqbatLQvEvK59/U0Lc1s M8gGTlopJ3kLyBBAy0w1J/pRmmSmOcHh+ywgb2DWZpC5Yee4qqgMkKFAgCYAu9OP14nZZloLtF4i /GwbyG4TILuJ959VXS5AhgJIOcWvVg7QllmrnHsOtNfhJua1AyCzMbAEEAzUGGKspBGkMBJJrXWf nSBTgw81VD53/iQgiyoqPyBDtamuTgFtL5O6feVmaNJkkxYUpHQKjB1/lle3/W2jvi3bvMJsScpz GW+LSmGmXadJ6OTVg9me2ndgtpfIWmlquazIWIAMBQs0rePio7cZvpWE0OWBh/k2o03Z51A5zJTg AoGLDONYSPWPMNBKjVNZegzIUIeA1legjU3xNTXdwGPuRGlpwccvEuCUFalVCjONxr4koaOh62YX MJTekULOgu5M3y+dtHQZ/9a6yooEyFDXgObU/aEDJAuleaJpyKiv7hyHpoHNOAHJle6/KaGs1cAs AbJHJfA0DzAMs18g5A3QCmRgc5NjYG1K+1wpQHNh1iv5xFyQDQEZQserJdMH7SyXQCveZM3OT/rV hSl5ItVeSQAQ6s4SIFsCMoQAWmL/iXlpTvoGNO188Adm5qXh0PZYjgEZQgBtx/7i8wv9+DFrfFuT MBMtdg1aBWQIATQb9KTwo1mYxQUemddeigkgQwigmf1taGvz+kjVyJfIbKivjzumEwFkCAG0pCJ9 PS8j1SwDZraggAwhgFYEaC4zvICZfR5rCcgQAmh5gZYYYzb0AWYXRGQIAbQDI7RVWcfrVQ0MQIYQ QNsBtNJm0ygDZg+ADCGAdiDQLss6ThkwWwMyhADakRHa2qc08yMgQwigFQGabzBL9mICMoQAWl6g WR3ddlYGzPqADCGAdiDQSlOvBGBcOYUEZAgBtLxAc6cIO7pcvTKA4Xw3BGQIAbScchdAObpcvWOB YV7nJiIiQwigFZE9/sqUsIxd7xhgmO02sj4gQwigFZRMGzY8Fmi9Q4Fh0hv7G4EZIEOo3UArY6Hh 3iHAMPRaIgTQPANarygwABlCAM1HoPWKACMHyGpb/gqQIRQM0PplAK13LMgSwzE2dZw5IEMoCKCt 9XVQRoTWKyEiGzkFmAMyhABaTlleXKRNm10UaL0SUkv7tztAhhBAOwBmLkcOBlrvGJDpAp72YdEp IEMIoOVVYoWm26xFTfICrXcEyOTHPurHRZUpJiBDKNgIbaKvcqxoB/j2As2F2bQgyCy85MdvqzpT QIZQuEBTSP2iHy/V33MDzTg9oSeyT+L/7AOZ/NjMSS9v4v0jQIZQWLq/vzc/v39vnp6ebNAyVKBU 4esCJjuFtjzvfZtYvSktmHLnQ1v08oIs/oGzeJPo7V+ADCEitJIloyLsSk3i98v4WOMcEZpJi8xW TrooO9tCD/Q/Xjn/T35kHP/oDJAhRIRWkt/LlEBuc5foQTNBicQ25nUs65my6bONzNLSzH2SEHCi PRGADCGAVjYDRgq18wL/LTfMVkrGaVUQA2QIAbQUqNnttAjM3mkI587+uKmysIAMIYBWgBHDxFdL TUEvt2BWx+NIgAwhgFYiO+YWZr2mDQPIEGqXfJ0+qFGYATKEAFrrYQbIEAJorYcZIEMIoLUeZoAM IYDWepgBMoQAWuthBsgQAmithxkgQwigtR5mgAwhgFYH0CqFGSBDCKDVBbTKYAbIEAJodQKtEpgB MoRQ3UArHWaADCHUBNBKhRkgQwg1BbTSYAbIEEJNAq0UmAEyhFDTQDsaZoAMIeQD0I6CGSBDCPkC tINhBsgQQj4B7SCYATKEkG9AKwwzQIYQ8hFohWAGyBBCvgItN8wAGULIZ6DlghkgQwj5DrS9MANk CKE2AK0HyBBCIQCtB8gQQiEArQfIEEIhAK0HyBBCIQCtB8gQQiEA7STenvX9Kt4uABlCyFfd39+b n9+/N09PT/LxMd428XYebwsXZgaQIYRaBjSrbZj951//CsgQQl7rf2OgLRaL3TBDCKEWavGD/IMd EEIt1/L/BRgAk9GMIdy1EKAAAAAASUVORK5CYII= "
     id="image6041"
     x="0"
     y="0" />
</svg>
