<?xml version="1.0" encoding="UTF-8" standalone="no"?>
<!-- Created with Inkscape (http://www.inkscape.org/) -->

<svg
   xmlns:dc="http://purl.org/dc/elements/1.1/"
   xmlns:cc="http://creativecommons.org/ns#"
   xmlns:rdf="http://www.w3.org/1999/02/22-rdf-syntax-ns#"
   xmlns:svg="http://www.w3.org/2000/svg"
   xmlns="http://www.w3.org/2000/svg"
   xmlns:xlink="http://www.w3.org/1999/xlink"
   xmlns:sodipodi="http://sodipodi.sourceforge.net/DTD/sodipodi-0.dtd"
   xmlns:inkscape="http://www.inkscape.org/namespaces/inkscape"
   id="svg4933"
   version="1.1"
   inkscape:version="0.91 r13725"
   width="184.2"
   height="184.2"
   viewBox="0 0 184.2 184.2"
   sodipodi:docname="6.svg">
  <metadata
     id="metadata4939">
    <rdf:RDF>
      <cc:Work
         rdf:about="">
        <dc:format>image/svg+xml</dc:format>
        <dc:type
           rdf:resource="http://purl.org/dc/dcmitype/StillImage" />
        <dc:title></dc:title>
      </cc:Work>
    </rdf:RDF>
  </metadata>
  <defs
     id="defs4937" />
  <sodipodi:namedview
     pagecolor="#ffffff"
     bordercolor="#666666"
     borderopacity="1"
     objecttolerance="10"
     gridtolerance="10"
     guidetolerance="10"
     inkscape:pageopacity="0"
     inkscape:pageshadow="2"
     inkscape:window-width="768"
     inkscape:window-height="848"
     id="namedview4935"
     showgrid="false"
     fit-margin-top="0"
     fit-margin-left="0"
     fit-margin-right="0"
     fit-margin-bottom="0"
     inkscape:zoom="1.2812161"
     inkscape:cx="92.099998"
     inkscape:cy="92.099999"
     inkscape:window-x="832"
     inkscape:window-y="24"
     inkscape:window-maximized="0"
     inkscape:current-layer="svg4933" />
  <image
     width="184.2"
     height="184.2"
     preserveAspectRatio="none"
     xlink:href="data:image/png;base64,iVBORw0KGgoAAAANSUhEUgAAATMAAAEzCAYAAABdWOReAAAACXBIWXMAABcSAAAXEgFnn9JSAAAA GXRFWHRTb2Z0d2FyZQBBZG9iZSBJbWFnZVJlYWR5ccllPAAAIbxJREFUeNrsnc+LI0l2x6PkARuz u9WYxRj2IB2842Op2fuW+g9YWg3GrA2m1GCmwcbu6n/ArTHYB/swGvayY2xajcH2xaz6sGZvI+G7 R73sZRvjVeHrwlYPDT6Zcr7pF6VQVKaUqV8ZEfn5QqKSSqVKRcb75HsR8eKdGGNuDEIIxa1ZizZA CKWgD5yfn2XHnCZBCEWkQXZc+DCb39zcTGkbhFAsOjk56dmfCTMRQkkImCGEgBlCCAEzhBACZggh BMwQQsAMIYSAGUIIATOEEAJmCCFghhBCwAwhhIAZQggBs73o5OTkklagvRAwi90w72UPn7hbjKCN GmbtNaAZEDALS9bLwDjLwV/a6ZT2QsAsPFmjvFAvDZVrr/Osvbo0RxA3mGl23GTHEJg1txP0s4d2 jqGi/PYSeJ3neLUIAbNAQkyMc7v26uPNImBWv5fRcbyMmT621VtDd9tLoNX32uvUeQ0hYBaAlyEG eUWouVYDhZf9eYY3i4BZGF6GhdbLm5ub6+xxpM8fqteG8uE/y9prkT2O9fkZy1oQMKtPfcfLGHuP eGd34S+warvtlAFtjDeLgFk4XsZrW0NUvbOXGGdhiCl6qxAz3g2AZS0ImNXgZcjygjN9OvJ+bZ+3 WeF+214Scl8UtBfeLAJmAXhlb7Nj4v4i8zrm4q1hnLlemQ8vo2Nnr7x2RQiYHcHLuOd4GWMNLU2B d3bORMAKzF4pvMwab7ZHc61GAdkxSuw7DeseUgBmd72Mok42Ua+t8d6Ghtrtde2lY45XtFdueC5t 8zT7eZzId5Lv8Vy+V51AA2arxjYr8DLsRMCYUHPl+1/ZiZICsazlrqQf2T52ETvQ9PwvCDMDcfk3 eRk5xnna8NDpvGR7uYZKRsDypih95/WhgZb9r152nGTH8Aggk+/TKxiiAWZH0oImOKjhohqBdiSP rHaQAbNlxyo7tuOGl/MGN1uplCVvGcsUjKUBtBBBBszuhkPnRevINKx8rk9fNdzrsO3VLjJADd9t GDrT5S0ocqCFCjJgttTI8c5eZBdsYsfEnGn0z/X3b03DZ+d0tb9rgFO7q4i211A9MZsaNqSLxQ+0 kEEm+oDu9L5DqTHK8guZDHho3s/A+W99qxdwQat9ZYACLMmaOFevNu99jzfMeNL/3vc/tz0FaPL6 oAJoxBPu63XpmNXNRY0DoIX+n2kVbzl0kN22pR5ycqbJR6Z76qVdO+1iD7mYnaa3UU57DQvaS24M XdqpcnvOnTYclGz/RU77lzkWGmXc2/B/Bs7fzDe9/8htNtTzmp7oD6IH3EHvjJHZOyftUs4zsAsm 58xkbt2O99Rzmhd5ZvqeSz1OvV/P9O8XZnWm3l6fnlnd4txGHMPs/402eGbd0DwyHdKQsewZMEMo vpvGxAsjBWCjzH4nFYDZV4/r3AtDBzFN1rgwYwIAoXgMV+DzhQMygdh9XRw7Kfs54lnJJI78nTgx ZrnU5sy8T0kaxNg+wAyhOEAmYd4LJyx8pBDbyYuSaEyh9kxfkrD1RYxAA2YIhQ8yGcvyZxIn+/wf Ol523yw3U4gOaMAMofBDy6ceyA4ypqWf2/OA1gNmCKFdQeZmUVyZI8wk5gBtEsvW58AMoXAlILNL L/rHWhKhQLO7nMj/HwMzhNAu4aVdNvHxsZdL6DKtT/XpwxjCTWCGUJga2vDyUPuRlTyHt975ADOE UGmvTEK8dt0Q8Ypgn+sYHjBDCJXWwPHKxjWfy8jxzgbADCFURT19nNR9Iuqd2fMIeutzYIZQWCGm gMzOYI4DOS0Ls3bIhWmAGUJhemUmoITvqfNzsONmQcAsoz11Fau114BWSFZ2geoslBPSUPMtMNts mOK2fkJdxdLt9dUGknabapScQoVF8NsCheCZWS8D76ycBGKnhkLEod1kZOucm4pHr2RoF2QY7Hz3 4Rbffe/fLwSYWYgNYskBC6S9qBKOkKNaC5ro2I+duTlVr2PMZSlsL7krnnle7ZCWCeYmU/VmPE8k 3Bxv4UnuPc+07upMg5wOAczKtxcwC0R7nHlcmPc5maFFKfeKIKTVyhZ1n2BtYaamRthEWlsz8Cz0 lIka20s6k92gz850tZnZTE6LQD2zM+/8glOdY2Z27OerWpRmOfXLRMD69rIe2VWBt4bilvXwTkMZ E/UmKoKd1WzV1Di2OoxooutYbHjZZyJgbYg5U7fehpfnTAQkpanzcyjLb+x5vA25clOrxsaxA/8j 75FlB3fh7+6iYNtpgjebnvTG/jowr7vv9LlgVRfMho6XMdeLKN7GK4xzrVd2ZQtZeAnAwD8t2RvW Wd2bIuqYbBuYFcfftnHG3q/t83ZMhRQO3F4SQj4saK9bb5aJgKTket3Dms/l0r+RArO7XsZbf68m bSwGtvM7kwsv217i1c5oryRDTXdTxFpu7JozfRYIVMOCmXoZF3mGmeOdXTARsAKplwUFLcZOp2dZ S1qhpr2xj49tC2qrFmCvA9gkMjjPbJBjhEXjBY33NrwMiXHBXXxsmAhI1Tuz17NtjjhepeCcOH0v CjusC2avdMC/6CK+xDjvjFdMN9zFRSxrSQtoApRPHc/7WN7R2AkvPw55OUYtMNsw8F8UOjV9IqDs eIVtL5vfitIBmtzQ7LjoxSGBJjdC3c3ioTO0MYylrY7pmV0X/LzpvWi/bYvik9ygXjtAm+97obSO twrIzh2QDWJqpKPBTF3VslVeBs7fTRvcia+qtpeJYBM9VNl25AYlEcorx2MXoO3sNak3Jp/zhRMJ RAeyY3tmoolzdxmsCUef2kZteD+2IcX5mvbqmtVFyAvMP02gZYd4aB87QwrPs+u/kCUUVcdKxbNT iEl/ea4vi7PxOEaQ3baTHr3sS5hDHub9NiLXzv+Uxuzo7zr63P7u2v6uqYe219xpE4Fb12svtz27 gX6HfpOv4xZtJhM6gzW/tyHhjXdMtE/0fNvR/tLT389z/na6zt7U+x8F2FZD5/yPBzPnQlznNOaN B7IuHfu2vRYb2utmXecPBMYDrmepNhs717S/4b29AqhVOSabbF/H7G5vqMDs7l1iXNC446Z7ZAVQ KGqvacAe2Tx04AYMMmm7exXs6bIk2GxO72VZO8uLEEKE2Yn+IHpw7MF2jfPdVevzglXuaHVM0WoR 4hiZXtepWd3i2+pxDKvJa2gzaRObHfNanYvrLT+ro4DztXV/ybmmQUwS6LifjPnNat02Wy/WlK5c qc2mgRvlnU6vY0BTHbR+kb3HALTDgEz7yMLseUdYOR+9kdpre6HXMZjJAiqao4OCTDq7LsvpmeXS nBfs8nEYkB3B+eiZ1TVvwdyUgBk6KMgcQwBoEYMsBqABM3RwkAG0NEAWOtCAGToKyADa8UGW/Z+R Vlrfe/uGCDRgho4GMoB2m7FxLI/MlnPsHMlD69dZXAeYoaOCrOlA0+/9OLbQsgTQZvp9FsAMNQZk AO1GFp12U1lTqXmjvbr3PQNmqBaQEXIiYIaSARlAQ8AMJQMygIaAGUoGZAANATOUDMgAGgJmKBmQ ATQEzA5nzIMGf/dat3wBaAiY7deYR02sEh7K3lUADQGz/UiMRvbfalQh4tA24SsAGrVBETCrIAux xlQJD3U30RygjancXroPPzCbi24Ds4SNWgzHVl9vRJXwUEHmAa3vXJMhPXVzm8nOxE0pPwjM1ntl VkkbTuggc4xTztEWwn3q1UNAhJnIM+xO9vBQn9qtTdqpGk4sIHM0cMLNET0WAbP1xmIlYc1VzuuA rD7v7NrxnM+0Og9CwGwNzF7pWMNYn1+kNOgcI8gcoMk1menT53VuCIiAWagGLsbc9kKYcYHXBsjC CTfH9F4EzPK9sitbn1K9MzvoHP2as0RAZq+LveGcZ9/rku4LzJC5Hfg/97wy4z1vx7xgMxWQOUAb muUkzZC1Z8AMqTHo41s/bFEvLeqJgNRAluNNnxJuAjO8sveGbj2uScHe7NY7exjbgHPCILOLaT91 rg2pTsCs0errnT0vxLQam+WAczQgSBlknldtPecR4SYwa7Ls4PHrogoz6q1NYoJZQ0Bmr439Xm1D qhMwa2iI2XWMfdOKcncioAfIggKafFdSnYBZo3Vd8POm9wKy8DQwpDoBs6ZK1ytZA+iXMBarBSAL Mtwk1QmYNVpjfbwo2slUw1FrKLMQt1VpMsgcoMm1JNUJmDVWQ7O6k+nQGoEAQleXCyTsjGdwq80B WWG4OaZ7A7Mm3c0lPOk5BvA8O36RAeIme/xVdnzigOxx0YwnIAtq6IBUJ2DWWAMQQEko+argLRK6 3NcwBpCFfz3F2ybVqUH6gCa4c0fva4jZUW9NIDdnjCzacPMLs0x1IjsAmDUSagsFRZACZOW87ayd JNXpqdFUp+y1CS1DmIkAWYyScJNUJ2CGAFn03pmf6jQFaMAMAbJYgSZtZid2pO0WTaxUD8wQIEtD 0lZ26c2pemgADZghQBZluOmuNwNowAwBsmiBNjbLVCcXaLQnMEOALOpw0wLtBUADZgiQxeadLUz+ 9kAADZghQBYd0IZmmerkA21ICwEzBMhiCzetrhy4ybZBY5oHmCFAFot35lZ1amvoaYF2AdCAGQJk MWlolqlO8nPfBxrZAsAMAbIYvDM/1UnWofXMcvnGhSH9CZhVNOYeIANkNQFN2v62qlN2dLPXpD++ 1NfOABowq2LMnzdxr3ZAFoykzVeqOul1AGjArJIunQ4FyFBd4eadqk45QCNBHZhtvCs2CmaALEig jU1OVSe9Lo/1dfI5gVmhUcvsUVuftpuwAhuQRRNujp3XZRnHzwEaMCvjlZkmeGeALHjvbGHyqzpJ 2Pl72fEvHtC4dsDsK8MWN/6hPr1yOlAHkKEagSbg8qs6yXV6lv3uj7LHB+q9kaAOzG7l7i3Vc9z7 5GocArIow03rgY1lgiA77Czn1OuvAA2Y3XaYl+reT1IMNQFZlN6Zm+r0UMd2/d/7QBvScg2Emd7J bIXwsT7asYrTVO50gCxqCZwKqzo5QCNBveGemQ0lX6vbbjvHLJVQE5BF7535qU7DAg/OBRoJ6k2C mU5pn3nemPG8tLOYp74BWTJAk2t4m+qUl3an0LsDNLIFmuGZWa9LxhsmXscYm8gnAgBZchqY/LVn eUAjQb0pMNOLawdTJ9oJfFlvrR9bZwBkyYab9sbaLhro1xlPARr5nA3xzMSw7cD/sOA99u536oAP kKE6gTY2q6lO3TXvHQC0ZsDM3uFmuhwjrzMsnHGKISBDAYabow3w84FGgnpKMNOL2V439pDjnbVD 7wSArDHe2cLkpzq5faHjAY0E9UQ9M9fVXmx476Lg7wAZqhNoEim4qU4d72Y9d5dmaHgK0FKDmV1P pto0Fub+fg7IUGDhpoXTyLsBL7RPmA1Ao59E7pkZZxzhadEdSl+3LvyrghlPQIbq8s5yU510NrOr 8DI5QCNBPTGYDc1yEFXuUJd2pkce9QJPzeYZT0AWkRLcCUX6pU11KrVAlgT1xGCmg6iXjsv9SXb8 KruoN/IoF9gB2WO9CwKyuEEmXsk8pbEiL9XptOxNV/vzf2XH/zpAG9JL4vTMrMt93yzX7fiS1+/n ueuALEqQyWp42TxglhjQpC+sTXUq0M+y4//0UUSC+r76m1wX/fmBN0h/jM4unVsOCUPkbjcNzRsD ZDuDzH3ty6zdzkO8xjv0i4V6Z1fZ9+qU/Lvb/k6f2vkaiGf7XJygWrfNlk4tHphMecvmd4AsPZB9 +O1vm89++EPzta99Ta73N1Ly0MqmOuUNt5CgnkCYGeGdF5DtArLPPjPf+c53zN9nj4kCbWxWU53+ siIMe4YEdWAGyMIH2de//vWvfvfhhx8mCzSzmur0UVXvjgR1YAbIIgGZVapA81KdvpWX6lTiMwYA DZgBsghA1gCgDU1BqtMOQCNBHZgBshBBljrQTHGqk9te3ewYbQAa+ZzADJCFDrKUgbapqpNKdld+ umFPtDFAA2aALAKQJe6hSbi5LtVJAPdo0zIkEtSBGSCLBGSpAm1TqpOurZyU/CxpZxLUgRkgCx1k CQNN+tQ2qU5uO3+1CYN+ltsnARowA2QhgizhkHNgNlR1WtPO4s3JJgx2osAPVUlQB2aALESQpQi0 bVOdVAKxl87fW89OxuKooA7MAFnIIEsUaNJupao6+SCUPulsTGphNjVUUAdmgCx8kCUacrrh5kg3 Ie1WaP+OWRYCmpKgDswAWSQgSw1oflWn7Phv836ZRafkR7hr1SZOCPvn2fFLCzRD+lMzYAbI4gJZ gkAbOp7Ur2fHvxfVjV0Ds5lbDyP7+T+yhx87n9v4fM5WA4wSkEUIsgRDTtvnflOPsn333PXKPEjK uJq0BQnqqcMMkMUNspSAVjLVyb0OEob2nJemaz57YEhQTxdmgCwNkCXmoUm4aVOdRkUelC6K/UV2 /Km+dFUi/Un+ptH5nK1EjRKQJQSyVIDmpTq1TXFVp7lC77ec52U+f9xkoLUSNEpAliDIEgKa9M21 qU6avylh5u9WgdkaoDWi/7cSM0pAljDIEgo5pU/erj1b877TqjBzgNa4BPVWQkYJyBoAshSA5qU6 nZVIdbrO6+/ZMS/KAGhiBfVWIkYJyBoEskSAJu3vpjp1tvyodZs8znOANky1T7cSMEpA1kCQJRJy uuHmeM37OgXeXc+sLt9YB7TkE9RbkRslIGswyGIHmp/qlFPV6Wqd96UJ6dcl/o8PtCQT1FsRGyUg A2QpAG1ovKpOWvREQPdTfb2/wzUfyNiaPr0DtJSyBVqRGiUgA2QphZy279qqTvJc1qGd6OvtHQbv L9VOeqlXUG9FaJSADJAlBTQ/1Un79+Ps9e85oeZwS+gIvB7ZugMpV1BvRWaUgAyQpeqhDR1wyTWb OJ6VUU9ttAUor/MKqKRYQb0VkVECMkCWLNCKqjopiGzGwIUbbup42GCH/+kDLeoE9VYkRgnIAFkT gDY1+alO0tftwL2sFRvpurQX23hrOUD7gQPRaPM5WxEYJSADZE0KOaVvr6w9U6+t7wDtqdqEQKi3 B4j+Rfbwj7EDrRW4UQIyQNYooBVVddI1aQIuOxMpY2iydfZEl1gMtqnP6fzfPzGRJ6jL1O+N/vxA 3VxABsiS1Js3b8xHT56Yd+/eSVt9mfWn8037hNV4LaXv211m77vnqZAZmmWhk3X6Mjv+xyzrBYjk swSaU9/mFYgTs0xyf6ypV6H2eWmH5wL5IGEGyABZ04GmY2JzhcpMl1P47+lr+NkrCbYiyTjdyNq/ eq3TGIAWNMwAGSADaHcMVfQsO8fRhve7wLM//455nw71E+/185yPkBBW6goscoD2sWYrADNABsgA 2lbXd672IJMC3QpVncp8tgBroIeF1lsF2kR/Pw7ZHl2YtQI6KUAGyI6miCYFrA3YVKcVGO2y0FV3 tJXJBglpXzr/50cyLhdbgnorEKMEZIAMoBUAx+RUddIxtalZU7Wpgnral/7ZrFZf78ZUQb0VgFEC MkAG0NZLQqnbVCexGQ03J2bHRbMqsT8ZL/s7s9zM8dSsrnPrmcAT1Fs1GyUgA2QAbbN3VpTqNNjH LKNNPtewc26WVaPOnHVuwSeot2o0SkAGyABaeeCIrayt6rSm33Qq/q+R44VdejZ7GSrQWjUZJSAD ZACtugam3Dbbfr+Zb/E9rHd2KuN0js1Oc4AWRIJ6qwajBGSADKBtH27eSXXaoOkOnqAdp+vr/547 vxebDargcOvIRgnIABlA2w1oY7Na1am76f3ZcW/LNXQWhB0LsOywM5zBVVBvHdEoARkgA2j7DzdH B/w/C3083wDXIBLUW0cySkAGyADa/ryzhVlf1alqX5PFt9fbQiiUCuqtIxglIANkAG3/QBsar6rT Hj62u8P5iI33TI0V1FsHNkpABsgA2mHDTRvebR1u6nhaV1Ob8nRV4XN8oA2jhxkgA2QA7eDeWW6q 0w6ha5Gntqh4Tj1TQwX11oGMEpABMoB2HA2Nl+rk9SsZD9t2Yav9blP9rEEZMNWVoN46gFECMkAG 0I7nneWmOjmS8PPcVKwVoGNwdsPHudq1fFa/zPhcHQnqrT0bJSADZADt+EATmytKdZLQ81Fe7cwN ckPWqQOnXtk91Y6doN7ao1ECMkAG0OqT2NqdVKeiIsAlZIH42lkkO6+6+PaYCeqtPRklIANkAK1G oG2Z6uT2x5E9d7Xnhz4Yy7IgL5w8RgX11h6MEpABMoAWBtDGpkKqk9MfxV6lFufQ88qMqZ7bOdK+ Pcg5Px9oe01Qb+1olIAMkAG0sEJON9wstfZMIfjMAZAdL7vaIqdTvMPC4iuHTFBv7WCUgAyQocCA tm2qk8DHjo05ntl0i/9/vamK1KES1FtbGiUgA2QoXKBJuGiXRPxVdg4fVeinHbNckjHxftfd4/cR cP6ZB7SdGNLawigBGSBD4Yec1ialo/11hewA91znOXa/88C9Lh35UXb8gdljgnqr4kkAMkCGIgCa l+r0zez47Yowe+uuJ3NmSy+dcHTbc5vquV3uM0G9VcEoARkgQ3F5aBJu2lSnv63oUc1zIDTeRwEV /axLO7mwrwT1VkmjBGSADEUGtBKpTn7ot6++39viXHdOUG+VODFABshQvEAT211b1UnH0z6XhbN7 6Psj/az+Fue6U4J6C5ABMpR8yDkw66s6iY3PvN91tvxfY/2s6Q7e5B2glQmRW4AMkKG0gbYp1ckt AmyWe5e1t9m9VvM3e7tMEmyboN4CZIAMNQJoY1Mu1cn1qPo+F/aVT7kJlNskqLcAGSBDjQk53XCz KN1oYYqrmU/NftaZyfedl9zocVAWaC1ABshQM4BWIdVp6IekfhHgHbUw1bbi9oGWm6B+Iu/Vnx/p lwBkgAwdQW/evDEfPXli3r17J33py8zezrcs1lu1387VzsVL6+ZttihbbZtlvcz7xzivEuctPHqh T+XcexoKPxdv0vXMxoAMkKFGhJzWttdVdXJD0mkg5fXE5lYS1I2TfuXC7BSQATKUPtByqjo984sA q7fmQq9UIrgWPbnex3fQJRlzd4wsB2gP82AGyAAZao6HNjTLVKe/UTB0PehNPHC80EpPmxbEyns7 ezpP+Zx7OR7aA8dzfG+bZjlmBsgAGapRxx5D02yAz/Xpv2X/6/cL3ieQE7C1nZffapg318OuK5PH 67JFT0qcY6fos/S8pgrPmQuzB5r6gAAZag7QJk6oVsgADfUuNfRsb/GvXivoLPwmu+6+oeclHuad CQAEyFDzQs6BWZ/qZEM7Ac9CPSFZ+SBjbjM/1FsjmVyU2VGpNSAzkr/Kvtd/7jXBHc8MkKFme2je koePdafaPM/Mhnt3lnPo74uga4HV1cP37ASMw208NU1sf0qYCcgQQLN9fWo2rCuzHuKu56CpTD/I ju9mxzecMLRyTidhJiBDhJzrws2iVKf5PmAqXl12fE89tFdOGLpTqhQwA2QIoG1d1SkvHC27S6wm k8syj2cO0CauJ1hlC21gBsgQQLNwGZrlPmLDbbYAUiA+rwIhLU33qQNSC0MB24uy5wHMABkCaH64 KVqX6rROtgjwuCJI5e9ud+vQcFO8tkdl16wBM0CGAJoLFT/VqV/x7zcWAd4AQgvSSx2jmxBmAjIE 0LaVhHk21el2y+p9FgEWSPqD/QrSV56HWFqNhxkgQwDtrnflhZvDAxUBzvO67Gtlt+2+B8wAGQJo 64A2dbwkWZTaNQcoApzz66nzcxmYXTceZoAMAbSNEu/sNtXpUEWAvdcXztMeYSYgQwBtX+FmYVWn Nfa1L6D+RpXlIY2DGSBDAK0S0MReylR1svYlM5lfbFMEOEd/bN4XPikFtEbBDJAhgLZzuLlp2YXY mMyELra0UXdy4Z/0c0qN0TUGZoAMAbStvbOFKZnqpGvDOjvkcLrn+6/Z53TLTjg0AmaADAG0nYE2 NLunOrk2WfT3PReMVT4zeZgBMgTQ9hZyDvRx21Qna5PrigBbmM1Kflwz1pkBMgTQ9ge0XVOdHC1M zpiajpfZPdXKpjGlv84MkCGAdhAPTcLNO6lOFaEoAOrlFFDqOT9Pq35ukjADZAgdBmh5qU47fI4v 6+ldbTOBkBzMABlCBweaeE23qU5uURJNRl9s+fl9N8TUgsLzst5fUjADZAgdLeQU7yyvqpO8Ltth dyrablc9PTfEvDQ5RYCThxkgQ+h4QCtKddJNFu9X2YdM1XM+e+K81m3U5oyADKFagCZ2dyfVacsF sxZmMxeYVSqjRw8zQIZQrSGnG26OKtjtyKsT0PVCzMqKGmaADKF6gbZNVSedMHhqVvczs4WBq3p1 8S+aBWQIBQO0oamQ6qSzoY9saOm9v+rGj3EvmgVkCAUXctqQsVSqkwzyO2vNOvv4LtHBDJAhFB7Q dkx1WhTYerpFgAEZQkF7aBJuVk518mYsXS8tzSLAgAyhsIG2Y6qTHXPrOa+Jd/c4qXVmgAyhaIA2 NQWpThs0tQCzHp1u9DhOJswEZAhFF3KKd5aX6uTatV8EeOx4dJfbnHfQMANkCMUHtE1VnfKKAOsE gl39f1lhJ9vw15kBMoSiBtrYFFR1WlME+NLxziYlJxDCXmcGyBBKIuR0w82RB7s7RYD1+TN9epYd 0yqbPwYHM0CGUBpA2ybVKfsbef9LB2g/KzuJEBTMABlCyQFtaCpWddLttC3QvpUdn2d/N920EPdE /lZ/fqCxLCBDCOXqzZs35qMnT8y7d+/EZr/MmHG+acsfhd4X+vRV9v5+SSb8g4aqv+b9SsbiFnqI 1yZFUGZBwAyQIZQ80CR8fKpPH5XdvFHHzC7NcgfbItUPM0CGUPpAUyjNFUgyKfDd7P0/rciKrnpi 8tjRox0EzAAZQo0CmoDoc336y+z4cU65uaoMsR7frLYJAECGUNyqOingpTp90yx3l92LaoEZIEOo mUAzq2vP7u3hFOpbNAvIEGou0DalOkXjmQEyhADaulQnjxdhFgEGZAgBtIJws2ib7fCKAAMyhACa 550tzOZUp54JqQgwIEMIoBUAbWjWpDoFVQQYkCEE0DaEnAN9LFXVqRaYATKEANomoO1Y1Ul02M0Z ARlCqIKHJuFm5apOqsOtMwNkCKEqQNuxqtNhwkxAhhDaEmhT41V1qq0IMCBDCO0Ycgq43KpOxy8C DMgQQrsCzU91yo6fmGMWAQZkCKE9Ak14YlOdnpj3e6AdPswEZAihA4ScbrhZeu3Z1jADZAihQwCt YlWn3daZATKE0IGBNjTlqjptv84MkCGEjhRyDvQtpVKdKsEMkCGEjgU0/VXpVKfSMANkCKEagCZr zUqlOpWCGSBDCNUEtFdOiLk21WkjzAAZQqhmoH3seGdPtWRdNZgBMoRQCEAzq9XMx5VgBsgQQqEA zZNb1Wn9OjNAhhAKHGh3qjq1ABlCKFKgycRA/qJZQIYQigho52a5sNacZMeN/iypA2eADCEUqt68 eWM+evLEvHv3zv/VzPXMABlCKNaQc8Uz+0p/+P3vAzKEUND6eeahzWazFc/sDswQQihCzT4wy10d EUIoVs3/X4ABAAhsGWQMkEYOAAAAAElFTkSuQmCC "
     id="image4941"
     x="0"
     y="0" />
</svg>
