<?xml version="1.0" encoding="UTF-8" standalone="no"?>
<!-- Created with Inkscape (http://www.inkscape.org/) -->

<svg
   xmlns:dc="http://purl.org/dc/elements/1.1/"
   xmlns:cc="http://creativecommons.org/ns#"
   xmlns:rdf="http://www.w3.org/1999/02/22-rdf-syntax-ns#"
   xmlns:svg="http://www.w3.org/2000/svg"
   xmlns="http://www.w3.org/2000/svg"
   xmlns:sodipodi="http://sodipodi.sourceforge.net/DTD/sodipodi-0.dtd"
   xmlns:inkscape="http://www.inkscape.org/namespaces/inkscape"
   width="744.09448819"
   height="1052.3622047"
   id="svg3050"
   version="1.1"
   inkscape:version="0.48.3.1 r9886"
   sodipodi:docname="next.svg">
  <defs
     id="defs3052" />
  <sodipodi:namedview
     id="base"
     pagecolor="#ffffff"
     bordercolor="#666666"
     borderopacity="1.0"
     inkscape:pageopacity="0.0"
     inkscape:pageshadow="2"
     inkscape:zoom="1"
     inkscape:cx="352.90791"
     inkscape:cy="507.32053"
     inkscape:document-units="px"
     inkscape:current-layer="layer1"
     showgrid="false"
     inkscape:window-width="1231"
     inkscape:window-height="776"
     inkscape:window-x="49"
     inkscape:window-y="24"
     inkscape:window-maximized="1" />
  <metadata
     id="metadata3055">
    <rdf:RDF>
      <cc:Work
         rdf:about="">
        <dc:format>image/svg+xml</dc:format>
        <dc:type
           rdf:resource="http://purl.org/dc/dcmitype/StillImage" />
        <dc:title></dc:title>
      </cc:Work>
    </rdf:RDF>
  </metadata>
  <g
     inkscape:label="Layer 1"
     inkscape:groupmode="layer"
     id="layer1">
    <g
       id="g3980"
       transform="matrix(-0.7063536,0,0,0.7063536,596.79266,166.92284)"
       inkscape:export-filename="/home/andy/sac-d7/sites/all/themes/sac/css/css-img/previous.png"
       inkscape:export-xdpi="90"
       inkscape:export-ydpi="90">
      <g
         id="g3976">
        <path
           sodipodi:type="star"
           style="fill:#000000;fill-opacity:1;fill-rule:nonzero;stroke:#000000;stroke-width:0;stroke-linecap:butt;stroke-linejoin:miter;stroke-miterlimit:4;stroke-opacity:1;stroke-dasharray:none"
           id="path3926-5"
           sodipodi:sides="3"
           sodipodi:cx="345.28278"
           sodipodi:cy="546.46515"
           sodipodi:r1="19.471657"
           sodipodi:r2="9.6244431"
           sodipodi:arg1="-1.0471976"
           sodipodi:arg2="0"
           inkscape:flatsided="false"
           inkscape:rounded="0"
           inkscape:randomized="0"
           d="m 355.0186,529.6022 -0.11138,16.86295 0.11139,16.86295 -14.54806,-8.52794 -14.65943,-8.33501 14.65943,-8.33501 z"
           inkscape:transform-center-x="4.5838091"
           transform="matrix(1.0048508,0,0,1.0048508,-1.0860053,-4.6079025)" />
        <path
           sodipodi:type="star"
           style="fill:#000000;fill-opacity:1;fill-rule:nonzero;stroke:#000000;stroke-width:0;stroke-linecap:butt;stroke-linejoin:miter;stroke-miterlimit:4;stroke-opacity:1;stroke-dasharray:none"
           id="path3926-3-7"
           sodipodi:sides="3"
           sodipodi:cx="345.28278"
           sodipodi:cy="546.46515"
           sodipodi:r1="19.471657"
           sodipodi:r2="9.6244431"
           sodipodi:arg1="-1.0471976"
           sodipodi:arg2="0"
           inkscape:flatsided="false"
           inkscape:rounded="0"
           inkscape:randomized="0"
           d="m 355.0186,529.6022 -0.11138,16.86295 0.11139,16.86295 -14.54806,-8.52794 -14.65943,-8.33501 14.65943,-8.33501 z"
           inkscape:transform-center-x="6.4763078"
           transform="matrix(1.4197081,0,0,1.4197081,-121.08837,-231.31296)"
           inkscape:transform-center-y="-7.1220104e-05" />
      </g>
      <g
         transform="translate(10.116463,-6.560261)"
         style="fill:#4cb7f7;fill-opacity:1"
         id="g3946">
        <path
           sodipodi:type="star"
           style="fill:#4cb7f7;fill-opacity:1;fill-rule:nonzero;stroke:#000000;stroke-width:0;stroke-linecap:butt;stroke-linejoin:miter;stroke-miterlimit:4;stroke-opacity:1;stroke-dasharray:none"
           id="path3926"
           sodipodi:sides="3"
           sodipodi:cx="345.28278"
           sodipodi:cy="546.46515"
           sodipodi:r1="19.471657"
           sodipodi:r2="9.6244431"
           sodipodi:arg1="-1.0471976"
           sodipodi:arg2="0"
           inkscape:flatsided="false"
           inkscape:rounded="0"
           inkscape:randomized="0"
           d="m 355.0186,529.6022 -0.11138,16.86295 0.11139,16.86295 -14.54806,-8.52794 -14.65943,-8.33501 14.65943,-8.33501 z"
           inkscape:transform-center-x="4.5838091"
           transform="matrix(0.94163715,0,0,0.94163715,10.113295,36.496412)" />
        <path
           sodipodi:type="star"
           style="fill:#4cb7f7;fill-opacity:1;fill-rule:nonzero;stroke:#000000;stroke-width:0;stroke-linecap:butt;stroke-linejoin:miter;stroke-miterlimit:4;stroke-opacity:1;stroke-dasharray:none"
           id="path3926-3"
           sodipodi:sides="3"
           sodipodi:cx="345.28278"
           sodipodi:cy="546.46515"
           sodipodi:r1="19.471657"
           sodipodi:r2="9.6244431"
           sodipodi:arg1="-1.0471976"
           sodipodi:arg2="0"
           inkscape:flatsided="false"
           inkscape:rounded="0"
           inkscape:randomized="0"
           d="m 355.0186,529.6022 -0.11138,16.86295 0.11139,16.86295 -14.54806,-8.52794 -14.65943,-8.33501 14.65943,-8.33501 z"
           inkscape:transform-center-x="6.5157259"
           transform="matrix(1.3384989,0,0,1.3384989,-103.57888,-180.3747)"
           inkscape:transform-center-y="-4.2235887e-05" />
      </g>
    </g>
  </g>
</svg>
